<?xml version="1.0" encoding="UTF-8" standalone="no"?>
<svg
   xmlns:dc="http://purl.org/dc/elements/1.1/"
   xmlns:cc="http://creativecommons.org/ns#"
   xmlns:rdf="http://www.w3.org/1999/02/22-rdf-syntax-ns#"
   xmlns:svg="http://www.w3.org/2000/svg"
   xmlns="http://www.w3.org/2000/svg"
   xmlns:sodipodi="http://sodipodi.sourceforge.net/DTD/sodipodi-0.dtd"
   xmlns:inkscape="http://www.inkscape.org/namespaces/inkscape"
   inkscape:version="1.0.1 (3bc2e813f5, 2020-09-07)"
   sodipodi:docname="hpc-joke.svg"
   viewBox="0 0 592.48474 263.37814"
   height="263.37814"
   width="592.48474"
   xml:space="preserve"
   id="svg893"
   version="1.1"><metadata
     id="metadata899"><rdf:RDF><cc:Work
         rdf:about=""><dc:format>image/svg+xml</dc:format><dc:type
           rdf:resource="http://purl.org/dc/dcmitype/StillImage" /><dc:title></dc:title></cc:Work></rdf:RDF></metadata><defs
     id="defs897"><clipPath
       id="clipPath911"
       clipPathUnits="userSpaceOnUse"><path
         id="path909"
         d="M 0,0 H 595 V 841 H 0 Z" /></clipPath><clipPath
       clipPathUnits="userSpaceOnUse"
       id="clipPath1556"><path
         d="M 0,0 H 595 V 841 H 0 Z"
         id="path1554" /></clipPath></defs><sodipodi:namedview
     fit-margin-bottom="0"
     fit-margin-right="0"
     fit-margin-left="0"
     fit-margin-top="0"
     inkscape:current-layer="g901"
     inkscape:window-maximized="1"
     inkscape:window-y="0"
     inkscape:window-x="0"
     inkscape:cy="170.4823"
     inkscape:cx="250.01902"
     inkscape:zoom="0.99294344"
     showgrid="false"
     id="namedview895"
     inkscape:window-height="1375"
     inkscape:window-width="2560"
     inkscape:pageshadow="2"
     inkscape:pageopacity="0"
     guidetolerance="10"
     gridtolerance="10"
     objecttolerance="10"
     borderopacity="1"
     bordercolor="#666666"
     pagecolor="#ffffff"
     inkscape:document-rotation="0" /><g
     transform="matrix(1.3333333,0,0,1.3333333,-60.214667,-379.39059)"
     inkscape:label="2020-11-08-Note-19-41"
     inkscape:groupmode="layer"
     id="g901"><g
       style="stroke-width:1.65428;stroke:#000000"
       transform="matrix(0.60620703,0,0,0.60278512,594.97313,281.81453)"
       id="g3149"><path
         id="path1842"
         style="fill:none;stroke:#000000;stroke-width:1.40613;stroke-linecap:round;stroke-linejoin:round;stroke-miterlimit:10;stroke-dasharray:none;stroke-opacity:1"
         d="m -745.62983,157.43613 c 0.99245,-4.65597 -0.63332,-10.92494 -1.05867,-15.51306 2.25827,-1.1321 5.04401,-0.007 7.51416,-0.21908 2.79831,0.2544 5.76205,-0.40152 8.47084,0.30108"
         sodipodi:nodetypes="cccc" /><path
         id="path1844"
         style="fill:none;stroke:#000000;stroke-width:1.40613;stroke-linecap:round;stroke-linejoin:round;stroke-miterlimit:10;stroke-dasharray:none;stroke-opacity:1"
         d="m -744.99922,150.47307 h 8.14272"
         sodipodi:nodetypes="cc" /><path
         id="path1846"
         style="fill:none;stroke:#000000;stroke-width:1.40613;stroke-linecap:round;stroke-linejoin:round;stroke-miterlimit:10;stroke-dasharray:none;stroke-opacity:1"
         d="m -735.62771,155.63007 c 2.39101,2.26084 6.29459,0.41544 8.23431,-1.63739 1.81774,-1.71396 0.41893,-4.52862 -1.84203,-4.87976 -0.84077,-0.27035 -1.22097,-0.12906 -2.02278,0.38965 -1.86708,1.20786 -5.84633,3.17437 -4.3695,6.1275 z"
         sodipodi:nodetypes="cccsc" /><path
         id="path1848"
         style="fill:none;stroke:#000000;stroke-width:1.40613;stroke-linecap:round;stroke-linejoin:round;stroke-miterlimit:10;stroke-dasharray:none;stroke-opacity:1"
         d="m -724.76212,149.58307 c 0.40625,2.52205 2.13414,4.79647 2.031,7.371 -0.96671,-1.90345 -0.90942,-4.48652 -0.582,-6.625 0.65029,-2.41914 3.0926,-1.66402 4.516,-0.453" /><path
         id="path1850"
         style="fill:none;stroke:#000000;stroke-width:1.40613;stroke-linecap:round;stroke-linejoin:round;stroke-miterlimit:10;stroke-dasharray:none;stroke-opacity:1"
         d="m -712.62721,138.94207 c 2.00162,5.17293 -0.1419,10.70443 -0.578,15.984 -0.22953,1.75258 1.0992,4.02694 3.08217,3.03337 0.31299,-0.0887 0.59376,-0.25651 0.89083,-0.38437" /><path
         id="path1852"
         style="fill:none;stroke:#000000;stroke-width:1.40613;stroke-linecap:round;stroke-linejoin:round;stroke-miterlimit:10;stroke-dasharray:none;stroke-opacity:1"
         d="m -716.43521,150.82507 c 0.79535,0.2508 3.1188,0.16247 4.49755,0.13071 1.22011,-0.001 2.44001,-0.013 3.65845,-0.0877" /><path
         id="path1854"
         style="fill:none;stroke:#000000;stroke-width:1.40613;stroke-linecap:round;stroke-linejoin:round;stroke-miterlimit:10;stroke-dasharray:none;stroke-opacity:1"
         d="m -705.8813,149.75107 c 0.64406,2.58315 2.13306,4.88078 2.856,7.41 -0.19869,-2.66268 -1.58716,-5.9137 0.31854,-8.20983 0.98642,-0.80889 2.36448,-0.15338 3.45046,0.0538" /><path
         id="path1856"
         style="fill:none;stroke:#000000;stroke-width:1.40613;stroke-linecap:round;stroke-linejoin:round;stroke-miterlimit:10;stroke-dasharray:none;stroke-opacity:1"
         d="m -689.24151,149.87607 c -2.39265,-2.99656 -8.46292,-1.45209 -8.074,2.7096 -0.0337,2.95161 3.58402,4.53145 5.90467,2.85105 2.07685,-1.17797 3.1197,-4.02344 2.33333,-6.26765 -0.44301,2.51529 0.38147,5.4699 2.07,7.414 l 0.25184,0.15655 0.0812,0.0504" /><path
         id="path1858"
         style="fill:none;stroke:#000000;stroke-width:1.40613;stroke-linecap:round;stroke-linejoin:round;stroke-miterlimit:10;stroke-dasharray:none;stroke-opacity:1"
         d="m -685.45133,148.64901 c 1.81774,2.30788 2.37433,5.37662 2.402,8.281 0.51158,-0.74149 0.49573,-3.08938 1.25633,-4.32129 0.92963,-2.56576 4.7495,-2.77989 5.88945,-0.26945 0.7078,1.11038 0.98478,2.46977 1.13622,3.76274" /><path
         id="path1860"
         style="fill:none;stroke:#000000;stroke-width:1.40613;stroke-linecap:round;stroke-linejoin:round;stroke-miterlimit:10;stroke-dasharray:none;stroke-opacity:1"
         d="m -712.91814,167.92099 c -2.09386,-15.79928 -14.20449,14.57842 0,0 0.81151,3.40105 4.05104,23.48916 -7.618,12.836"
         sodipodi:nodetypes="ccc" /><path
         id="path1862"
         style="fill:none;stroke:#000000;stroke-width:1.40613;stroke-linecap:round;stroke-linejoin:round;stroke-miterlimit:10;stroke-dasharray:none;stroke-opacity:1"
         d="m -694.52414,171.55799 c -3.6966,15.20851 -19.27606,-5.59383 -4.42927,-5.3155 2.4075,0.55724 4.42723,2.75328 4.42927,5.3155 z" /></g><g
       style="stroke-width:1.65428;stroke:#000000"
       transform="matrix(0.60620703,0,0,0.60278512,547.76955,285.36637)"
       id="g3164"><path
         id="path1864"
         style="fill:none;stroke:#000000;stroke-width:1.40613;stroke-linecap:round;stroke-linejoin:round;stroke-miterlimit:10;stroke-dasharray:none;stroke-opacity:1"
         d="m -744.25362,188.86568 c 0,0 -0.0508,-4.00766 0.0384,-4.68143 0.41539,-3.3795 -0.3011,-6.78464 -0.89926,-10.08618 4.13581,0.98751 8.4132,1.4505 12.668,1.16"
         sodipodi:nodetypes="cccc" /><path
         id="path1866"
         style="fill:none;stroke:#000000;stroke-width:1.40613;stroke-linecap:round;stroke-linejoin:round;stroke-miterlimit:10;stroke-dasharray:none;stroke-opacity:1"
         d="m -743.9961,183.94972 c 2.03959,0.25508 5.53351,-0.18127 7.5346,0.33235"
         sodipodi:nodetypes="cc" /><path
         id="path1868"
         style="fill:none;stroke:#000000;stroke-width:1.40613;stroke-linecap:round;stroke-linejoin:round;stroke-miterlimit:10;stroke-dasharray:none;stroke-opacity:1"
         d="m -733.6065,186.64507 c 3.34203,1.62987 6.48981,-3.78774 4.266,-6.297 -0.55574,-0.34682 -0.88229,-0.12304 -2.422,0.85 -2.27055,1.4349 -3.91316,4.39199 -1.844,5.447 z"
         sodipodi:nodetypes="ccsc" /><path
         id="path1870"
         style="fill:none;stroke:#000000;stroke-width:1.40613;stroke-linecap:round;stroke-linejoin:round;stroke-miterlimit:10;stroke-dasharray:none;stroke-opacity:1"
         d="m -724.1215,181.42607 c 0.36594,1.90866 1.83519,3.69184 1.945,5.754 0.45521,-2.14867 -0.5132,-5.15071 1.42523,-6.67161 1.01049,-0.38327 2.10918,-0.0592 3.12977,0.13261" /><path
         id="path1872"
         style="fill:none;stroke:#000000;stroke-width:1.40613;stroke-linecap:round;stroke-linejoin:round;stroke-miterlimit:10;stroke-dasharray:none;stroke-opacity:1"
         d="m -712.1965,173.41488 c 0.067,3.50686 -1.49355,9.40485 0.0694,12.70813 1.31751,1.7498 3.54238,0.24526 4.89963,-0.63794"
         sodipodi:nodetypes="ccc" /><path
         id="path1874"
         style="fill:none;stroke:#000000;stroke-width:1.40613;stroke-linecap:round;stroke-linejoin:round;stroke-miterlimit:10;stroke-dasharray:none;stroke-opacity:1"
         d="m -715.12801,180.43407 c 1.43113,0.0155 5.76777,-0.0371 7.19751,0.039"
         sodipodi:nodetypes="cc" /><path
         id="path1876"
         style="fill:none;stroke:#000000;stroke-width:1.40613;stroke-linecap:round;stroke-linejoin:round;stroke-miterlimit:10;stroke-dasharray:none;stroke-opacity:1"
         d="m -705.2825,180.51607 c 1.5078,-0.28886 2.20226,2.11222 2.774,3.27 0.65703,1.56571 -0.27157,3.94802 -0.52261,1.07166 -0.17415,-1.96644 -0.55538,-5.40141 2.18614,-5.58366 0.60193,-0.0527 1.17305,0.23998 1.73447,0.414" /><path
         id="path1878"
         style="fill:none;stroke:#000000;stroke-width:1.40613;stroke-linecap:round;stroke-linejoin:round;stroke-miterlimit:10;stroke-dasharray:none;stroke-opacity:1"
         d="m -691.5325,179.56307 c -2.11864,-0.29705 -4.52309,-0.54982 -5.08086,1.18216 -1.51691,1.79644 -0.57695,5.75083 2.26486,4.90384 2.38629,-0.8169 3.7578,-3.7787 2.816,-6.086 0.29837,1.98808 1.26706,4.71903 3.188,5.879"
         sodipodi:nodetypes="ccccc" /><path
         id="path1880"
         style="fill:none;stroke:#000000;stroke-width:1.40613;stroke-linecap:round;stroke-linejoin:round;stroke-miterlimit:10;stroke-dasharray:none;stroke-opacity:1"
         d="m -686.20563,178.73115 c 0.0151,1.13834 -0.29176,9.00402 0.42909,6.43781 1.0126,-2.23096 1.07347,-5.51008 3.61049,-6.59789 4.10099,-0.12634 3.88877,5.044 3.977,7.867"
         sodipodi:nodetypes="cccc" /><path
         id="path1882"
         style="fill:none;stroke:#000000;stroke-width:1.40613;stroke-linecap:round;stroke-linejoin:round;stroke-miterlimit:10;stroke-dasharray:none;stroke-opacity:1"
         d="m -724.44953,200.88313 c 6.72452,-0.0271 13.10409,-4.24042 8.35728,5.44247 -0.70538,2.23824 -2.61326,6.53842 -2.69051,9.13504"
         sodipodi:nodetypes="ccc" /><path
         id="path1884"
         style="fill:none;stroke:#000000;stroke-width:1.40613;stroke-linecap:round;stroke-linejoin:round;stroke-miterlimit:10;stroke-dasharray:none;stroke-opacity:1"
         d="m -723.88024,209.86598 c 0.50406,-0.39599 8.93049,0.47518 10.31148,0.25166"
         sodipodi:nodetypes="cc" /><path
         id="path1886"
         style="fill:none;stroke:#000000;stroke-width:1.40613;stroke-linecap:round;stroke-linejoin:round;stroke-miterlimit:10;stroke-dasharray:none;stroke-opacity:1"
         d="m -707.18976,202.37464 c 11.95709,-1.74404 12.46571,-4.6021 6.914,14.825"
         sodipodi:nodetypes="cc" /><path
         id="path1888"
         style="fill:none;stroke:#000000;stroke-width:1.40613;stroke-linecap:round;stroke-linejoin:round;stroke-miterlimit:10;stroke-dasharray:none;stroke-opacity:1"
         d="m -705.52176,210.42564 c 4.84914,-0.42406 9.69814,-0.84973 14.547,-1.277" /></g><g
       style="stroke-width:1.64146;stroke:#000000"
       transform="matrix(0.61368666,0,0,0.6047718,378.85743,206.10801)"
       id="g3180"><path
         id="path1890"
         style="fill:none;stroke:#000000;stroke-width:1.39524;stroke-linecap:round;stroke-linejoin:round;stroke-miterlimit:10;stroke-dasharray:none;stroke-opacity:1"
         d="m -532.6105,131.64507 c 0,9.07033 0,18.14067 0,27.211" /><path
         id="path1892"
         style="fill:none;stroke:#000000;stroke-width:1.39524;stroke-linecap:round;stroke-linejoin:round;stroke-miterlimit:10;stroke-dasharray:none;stroke-opacity:1"
         d="m -520.3755,159.03207 c 0,-9.547 0,-19.094 0,-28.641" /><path
         id="path1894"
         style="fill:none;stroke:#000000;stroke-width:1.39524;stroke-linecap:round;stroke-linejoin:round;stroke-miterlimit:10;stroke-dasharray:none;stroke-opacity:1"
         d="m -533.6375,146.05907 c 4.54039,-0.66628 9.08072,-1.33295 13.621,-2" /><path
         id="path1896"
         style="fill:none;stroke:#000000;stroke-width:1.39524;stroke-linecap:round;stroke-linejoin:round;stroke-miterlimit:10;stroke-dasharray:none;stroke-opacity:1"
         d="m -514.1845,157.28607 c 0.4789,-7.38797 0.033,-15.05304 -1.117,-22.196 4.01255,-5.09158 16.68609,-2.85016 14.078,5.176 -1.2483,4.99684 -8.1559,10.36781 -12.797,6.418 l 0.125,-0.332 0.289,-0.164" /><path
         id="path1898"
         style="fill:none;stroke:#000000;stroke-width:1.39524;stroke-linecap:round;stroke-linejoin:round;stroke-miterlimit:10;stroke-dasharray:none;stroke-opacity:1"
         d="m -483.1295,136.91507 c -10.49545,-3.07666 -20.67252,12.04887 -12.547,20.246 4.07859,3.38961 9.18405,0.55164 13.129,-1.488" /><path
         id="path1900"
         style="fill:none;stroke:#000000;stroke-width:1.39524;stroke-linecap:round;stroke-linejoin:round;stroke-miterlimit:10;stroke-dasharray:none;stroke-opacity:1"
         d="m -462.6295,147.14107 c -2.03338,2.4223 -1.50273,8.09736 -0.539,11.594 3.63234,4.17946 7.22094,-3.66023 8.27668,-6.69577 1.42535,-3.76317 0.68109,-11.00568 0.90921,-2.92387 0.21046,3.70511 0.22871,7.44925 0.87611,11.11164" /><path
         id="path1902"
         style="fill:none;stroke:#000000;stroke-width:1.39524;stroke-linecap:round;stroke-linejoin:round;stroke-miterlimit:10;stroke-dasharray:none;stroke-opacity:1"
         d="m -447.8055,146.64507 c -2.15623,0.50669 1.25411,7.24324 0.92715,10.00145 0.3131,7.27626 1.45103,-2.19283 1.80385,-4.74345 0.56767,-6.96363 6.07259,-1.02883 5.50715,3.04402 0.3277,1.92068 0.246,3.87731 0.37085,5.81498" /><path
         id="path1904"
         style="fill:none;stroke:#000000;stroke-width:1.39524;stroke-linecap:round;stroke-linejoin:round;stroke-miterlimit:10;stroke-dasharray:none;stroke-opacity:1"
         d="m -433.09289,147.67066 c -0.86344,1.82501 0.1533,5.20809 -0.42761,7.0786 -0.0329,1.12532 0.0265,2.24787 0.164,3.36481"
         sodipodi:nodetypes="ccc" /><path
         id="path1906"
         style="fill:none;stroke:#000000;stroke-width:1.39524;stroke-linecap:round;stroke-linejoin:round;stroke-miterlimit:10;stroke-dasharray:none;stroke-opacity:1"
         d="m -431.9495,135.54707 c -0.6309,-0.92731 -2.15033,-3.45594 -1.2,-4.222" /><path
         id="path1908"
         style="fill:none;stroke:#000000;stroke-width:1.39524;stroke-linecap:round;stroke-linejoin:round;stroke-miterlimit:10;stroke-dasharray:none;stroke-opacity:1"
         d="m -424.3715,146.89107 c -1.03801,1.64247 1.05981,6.64388 0.70326,9.29133 0.53017,6.61479 3.28672,-1.09781 4.09509,-3.56162 1.17185,-1.87984 2.04723,-6.84928 3.60765,-7.09671"
         sodipodi:nodetypes="cccc" /><path
         id="path1910"
         style="fill:none;stroke:#000000;stroke-width:1.39524;stroke-linecap:round;stroke-linejoin:round;stroke-miterlimit:10;stroke-dasharray:none;stroke-opacity:1"
         d="m -413.24733,152.96459 c -0.36028,2.12194 3.99619,0.0481 4.69254,-2.64305 2.9848,-4.17165 -2.05311,-6.45461 -3.80971,-1.85647 -3.42246,4.13844 0.25838,10.50312 5.594,9.028 l 0.785,-0.043"
         sodipodi:nodetypes="ccccc" /><path
         id="path1912"
         style="fill:none;stroke:#000000;stroke-width:1.39524;stroke-linecap:round;stroke-linejoin:round;stroke-miterlimit:10;stroke-dasharray:none;stroke-opacity:1"
         d="m -397.8285,148.38307 c -2.05368,1.99467 -0.60169,6.79084 0.168,9.649 0.84573,-4.41636 -1.01355,-14.74713 7.121,-10.727" /><path
         id="path1914"
         style="fill:none;stroke:#000000;stroke-width:1.39524;stroke-linecap:round;stroke-linejoin:round;stroke-miterlimit:10;stroke-dasharray:none;stroke-opacity:1"
         d="m -376.4185,147.18007 c 0.9888,-4.03369 -6.13142,-0.76185 -7.828,0.621 -2.1194,4.96681 9.83526,3.27446 6.707,8.493 -3.15875,2.38144 -7.80331,3.5016 -11.676,2.98" /><path
         id="path1916"
         style="fill:none;stroke:#000000;stroke-width:1.39524;stroke-linecap:round;stroke-linejoin:round;stroke-miterlimit:10;stroke-dasharray:none;stroke-opacity:1"
         d="m -368.75564,152.6195 c 0.45747,1.27548 4.37946,1.68754 6.24714,-0.25943 4.89734,-1.64981 3.69199,-7.58635 -1.47437,-4.94827 -5.49713,0.73882 -8.3946,9.15649 -1.8582,10.74025 2.95756,1.14695 6.20284,0.8418 9.29757,0.66502"
         sodipodi:nodetypes="ccccc" /></g><g
       style="stroke:#000000"
       transform="translate(809.85061,113.89574)"
       id="g3204"><path
         id="path1918"
         style="fill:none;stroke:#000000;stroke-width:0.85;stroke-linecap:round;stroke-linejoin:round;stroke-miterlimit:10;stroke-dasharray:none;stroke-opacity:1"
         d="m -523.3755,175.50507 c -1.2541,-7.1347 -10.37629,3.90334 -4.266,4.929 5.57099,-0.0542 5.23501,5.88014 0.68991,7.39634 -0.69817,0.86732 -5.24944,0.59516 -3.79491,-1.02134" /><path
         id="path1920"
         style="fill:none;stroke:#000000;stroke-width:0.85;stroke-linecap:round;stroke-linejoin:round;stroke-miterlimit:10;stroke-dasharray:none;stroke-opacity:1"
         d="m -513.0475,184.57107 c -0.14285,6.34889 -10.33342,3.61828 -7.277,-1.949 2.03111,-3.29088 7.1585,-1.93159 7.277,1.949 z" /><path
         id="path1922"
         style="fill:none;stroke:#000000;stroke-width:0.85;stroke-linecap:round;stroke-linejoin:round;stroke-miterlimit:10;stroke-dasharray:none;stroke-opacity:1"
         d="m -507.0205,191.94607 c 1.01785,-6.63754 -2.40551,-13.27199 -1.16,-19.711 1.70865,-1.8831 4.93206,-0.47109 6.172,1.324" /><path
         id="path1924"
         style="fill:none;stroke:#000000;stroke-width:0.85;stroke-linecap:round;stroke-linejoin:round;stroke-miterlimit:10;stroke-dasharray:none;stroke-opacity:1"
         d="m -510.9535,183.02007 c 2.388,0 4.776,0 7.164,0" /><path
         id="path1926"
         style="fill:none;stroke:#000000;stroke-width:0.85;stroke-linecap:round;stroke-linejoin:round;stroke-miterlimit:10;stroke-dasharray:none;stroke-opacity:1"
         d="m -496.0475,174.01607 c 3.48581,4.40397 -1.71085,10.27894 1.406,14.367 2.21591,1.19492 4.48405,-0.86568 5.922,-2.359" /><path
         id="path1928"
         style="fill:none;stroke:#000000;stroke-width:0.85;stroke-linecap:round;stroke-linejoin:round;stroke-miterlimit:10;stroke-dasharray:none;stroke-opacity:1"
         d="m -498.1175,182.38707 c 2.595,0 5.19,0 7.785,0" /><path
         id="path1930"
         style="fill:none;stroke:#000000;stroke-width:0.85;stroke-linecap:round;stroke-linejoin:round;stroke-miterlimit:10;stroke-dasharray:none;stroke-opacity:1"
         d="m -487.3095,181.63307 c 0.0698,1.02254 1.99167,5.88812 3.26685,5.91269 1.50534,-1.76847 1.40975,-4.5302 2.70585,-6.3482 0.88566,2.07275 0.72461,4.10625 2.16768,5.88629 1.71363,-1.97441 2.67433,-5.33627 4.85962,-7.02478"
         sodipodi:nodetypes="ccccc" /><path
         id="path1932"
         style="fill:none;stroke:#000000;stroke-width:0.85;stroke-linecap:round;stroke-linejoin:round;stroke-miterlimit:10;stroke-dasharray:none;stroke-opacity:1"
         d="m -468.64881,182.30188 c 1.58914,-2.80858 -7.55435,-0.34964 -5.03969,3.39019 3.03742,4.84109 5.98078,-6.98946 4.59551,-2.04076 0.23383,1.24617 0.20835,2.76986 1.32649,3.61476"
         sodipodi:nodetypes="cccc" /><path
         id="path1934"
         style="fill:none;stroke:#000000;stroke-width:0.85;stroke-linecap:round;stroke-linejoin:round;stroke-miterlimit:10;stroke-dasharray:none;stroke-opacity:1"
         d="m -465.80358,182.58163 c 0.96615,1.17032 2.92007,6.64017 2.71708,2.98544 -0.15689,-2.47337 -0.32906,-5.96113 3.312,-5.176"
         sodipodi:nodetypes="ccc" /><path
         id="path1936"
         style="fill:none;stroke:#000000;stroke-width:0.85;stroke-linecap:round;stroke-linejoin:round;stroke-miterlimit:10;stroke-dasharray:none;stroke-opacity:1"
         d="m -456.0905,183.20807 c 0.68554,5.08314 7.35452,-3.34678 2.527,-2.446 -4.03239,0.93301 -6.01687,6.95099 -0.953,8.078 1.4539,0.50624 3.02139,0.76404 4.555,0.536" /><path
         id="path1938"
         style="fill:none;stroke:#000000;stroke-width:0.85;stroke-linecap:round;stroke-linejoin:round;stroke-miterlimit:10;stroke-dasharray:none;stroke-opacity:1"
         d="m -430.00112,183.45172 c -1.09741,-4.41465 -6.48123,-3.3311 -5.42538,2.36535 2.96307,3.65981 6.80076,-3.57666 7.039,-6.586 0.93768,-4.61117 -0.91422,-8.07467 -0.2291,-1.011 0.53489,2.97632 1.08286,5.99572 2.0101,8.878"
         sodipodi:nodetypes="ccccc" /><path
         id="path1940"
         style="fill:none;stroke:#000000;stroke-width:0.85;stroke-linecap:round;stroke-linejoin:round;stroke-miterlimit:10;stroke-dasharray:none;stroke-opacity:1"
         d="m -424.7855,185.31707 c 2.98084,0.66063 9.13234,-2.33668 5.757,-5.504 -4.81296,-1.20597 -8.06258,7.33819 -2.113,7.742 1.48803,0.28856 3.01239,-0.0949 4.43,-0.539" /><path
         id="path1942"
         style="fill:none;stroke:#000000;stroke-width:0.85;stroke-linecap:round;stroke-linejoin:round;stroke-miterlimit:10;stroke-dasharray:none;stroke-opacity:1"
         d="m -412.88323,180.24525 c 0.51981,1.0251 1.15632,5.21064 1.80473,6.52082 2.35008,-0.65858 2.91507,-5.76658 3.976,-8.113"
         sodipodi:nodetypes="ccc" /><path
         id="path1944"
         style="fill:none;stroke:#000000;stroke-width:0.85;stroke-linecap:round;stroke-linejoin:round;stroke-miterlimit:10;stroke-dasharray:none;stroke-opacity:1"
         d="m -396.1725,180.88707 c -3.08513,0.65187 1.23317,8.49385 3.7342,3.76421 2.60048,-4.32667 1.25027,-6.62161 2.9338,-0.45121 0.27427,0.85689 0.59517,1.70378 1.117,2.445" /><path
         id="path1946"
         style="fill:none;stroke:#000000;stroke-width:0.85;stroke-linecap:round;stroke-linejoin:round;stroke-miterlimit:10;stroke-dasharray:none;stroke-opacity:1"
         d="m -386.2745,179.43807 c 2.09615,1.69701 2.02355,9.623 2.278,3.563 1.2319,-6.56304 6.57414,0.78049 5.175,3.972" /><path
         id="path1948"
         style="fill:none;stroke:#000000;stroke-width:0.85;stroke-linecap:round;stroke-linejoin:round;stroke-miterlimit:10;stroke-dasharray:none;stroke-opacity:1"
         d="m -376.2975,187.63707 c 0,-2.63667 0,-5.27333 0,-7.91" /><path
         id="path1950"
         style="fill:none;stroke:#000000;stroke-width:0.85;stroke-linecap:round;stroke-linejoin:round;stroke-miterlimit:10;stroke-dasharray:none;stroke-opacity:1"
         d="m -375.6765,175.46507 c -0.12847,-0.51872 -0.0244,-1.07223 0.125,-1.574" /><path
         id="path1952"
         style="fill:none;stroke:#000000;stroke-width:0.85;stroke-linecap:round;stroke-linejoin:round;stroke-miterlimit:10;stroke-dasharray:none;stroke-opacity:1"
         d="m -372.6105,181.59007 c -0.5062,2.85559 1.25548,7.6581 3.37694,1.53819 0.74279,-1.29082 1.36299,-2.6687 2.13106,-3.93619" /><path
         id="path1954"
         style="fill:none;stroke:#000000;stroke-width:0.85;stroke-linecap:round;stroke-linejoin:round;stroke-miterlimit:10;stroke-dasharray:none;stroke-opacity:1"
         d="m -366.5245,183.29007 c 0.94072,4.49861 8.7374,-4.42008 3.602,-3.852 -5.25066,1.48789 -3.9491,10.92172 2.113,8.281 0.63673,-0.24629 1.32391,-0.36372 1.906,-0.746" /><path
         id="path1956"
         style="fill:none;stroke:#000000;stroke-width:0.85;stroke-linecap:round;stroke-linejoin:round;stroke-miterlimit:10;stroke-dasharray:none;stroke-opacity:1"
         d="m -356.58926,181.25999 c 0.45983,0.13566 1.73049,8.29633 1.78376,2.44408 -0.34352,-3.70757 2.28732,-5.25697 5.426,-3.231"
         sodipodi:nodetypes="ccc" /><path
         id="path1958"
         style="fill:none;stroke:#000000;stroke-width:0.85;stroke-linecap:round;stroke-linejoin:round;stroke-miterlimit:10;stroke-dasharray:none;stroke-opacity:1"
         d="m -341.7195,181.09407 c -1.13138,-1.98164 -8.15304,-1.02267 -6.461,1.325 6.99293,2.14912 2.34851,5.52252 -2.07,5.714" /><path
         id="path1960"
         style="fill:none;stroke:#000000;stroke-width:0.85;stroke-linecap:round;stroke-linejoin:round;stroke-miterlimit:10;stroke-dasharray:none;stroke-opacity:1"
         d="m -339.54249,184.18391 c 1.80726,3.21108 8.42074,-6.0476 2.25299,-4.37084 -4.73101,0.93333 -2.67458,7.39828 1.72561,6.53538 0.96478,0.10631 1.94332,0.0357 2.91039,0.004"
         sodipodi:nodetypes="cccc" /></g><g
       style="stroke:#000000"
       transform="translate(832.59416,250.70511)"
       id="g3223"><path
         id="path1962"
         style="fill:none;stroke:#000000;stroke-width:0.85;stroke-linecap:round;stroke-linejoin:round;stroke-miterlimit:10;stroke-dasharray:none;stroke-opacity:1"
         d="m -526.4425,207.88707 c -2.47007,-0.66861 -6.82419,1.52886 -3.019,3.559 4.17864,1.98073 -0.40032,3.63982 -2.571,2.527" /><path
         id="path1964"
         style="fill:none;stroke:#000000;stroke-width:0.85;stroke-linecap:round;stroke-linejoin:round;stroke-miterlimit:10;stroke-dasharray:none;stroke-opacity:1"
         d="m -522.9615,215.46507 c 2.41036,-0.64019 3.90075,-4.55557 1.324,-5.591 -4.00027,-1.60745 -7.0251,7.00998 -1.324,5.591 z"
         sodipodi:nodetypes="csc" /><path
         id="path1966"
         style="fill:none;stroke:#000000;stroke-width:0.85;stroke-linecap:round;stroke-linejoin:round;stroke-miterlimit:10;stroke-dasharray:none;stroke-opacity:1"
         d="m -519.4855,208.84007 c 2.57642,0.61196 2.91291,8.91061 3.80339,4.27995 0.48297,-5.76072 5.88315,-1.37723 3.94261,2.46705 -0.88124,-1.62723 3.95287,-7.66935 4.305,-0.497 l 0.125,0.457 0.125,0.29" /><path
         id="path1968"
         style="fill:none;stroke:#000000;stroke-width:0.85;stroke-linecap:round;stroke-linejoin:round;stroke-miterlimit:10;stroke-dasharray:none;stroke-opacity:1"
         d="m -504.2513,213.37177 c 2.84676,2.61548 4.51776,-5.44023 0.5438,-2.2537 -4.03101,5.02102 3.29542,7.13218 6.582,3.972"
         sodipodi:nodetypes="ccc" /><path
         id="path1970"
         style="fill:none;stroke:#000000;stroke-width:0.85;stroke-linecap:round;stroke-linejoin:round;stroke-miterlimit:10;stroke-dasharray:none;stroke-opacity:1"
         d="m -478.1995,213.14507 c 1.29516,-6.67622 -7.97819,2.47195 -1.411,3.149 4.07089,-2.72464 6.04439,-9.70058 3.77,-13.875 -0.6943,4.47892 1.31055,9.52502 2.195,13.996" /><path
         id="path1972"
         style="fill:none;stroke:#000000;stroke-width:0.85;stroke-linecap:round;stroke-linejoin:round;stroke-miterlimit:10;stroke-dasharray:none;stroke-opacity:1"
         d="m -471.08362,213.25831 c 2.60615,0.70913 6.62782,-5.89173 1.70412,-3.67524 -3.73025,2.4502 -0.99624,8.93802 3.394,6.586 0.52517,-0.1648 1.04845,-0.33559 1.575,-0.496"
         sodipodi:nodetypes="cccc" /><path
         id="path1974"
         style="fill:none;stroke:#000000;stroke-width:0.85;stroke-linecap:round;stroke-linejoin:round;stroke-miterlimit:10;stroke-dasharray:none;stroke-opacity:1"
         d="m -459.2785,213.64107 c 1.52751,-3.53798 -7.15635,-4.43698 -5.754,0.375 0.49727,5.06965 8.73457,-0.85365 5.008,-1.988 -0.58748,1.6186 -0.15329,3.65796 1.078,4.887" /><path
         id="path1976"
         style="fill:none;stroke:#000000;stroke-width:0.85;stroke-linecap:round;stroke-linejoin:round;stroke-miterlimit:10;stroke-dasharray:none;stroke-opacity:1"
         d="m -450.1184,213.99239 c 3.66335,-5.01047 -7.53147,-2.12406 -5.8471,1.88768 3.59993,3.82424 7.24129,-3.15557 6.793,-6.586 0.76158,-1.75921 -1.20422,-11.16444 -1.25531,-5.51732 0.28488,4.06064 0.34608,8.3071 1.83331,12.14232"
         sodipodi:nodetypes="ccccc" /><path
         id="path1978"
         style="fill:none;stroke:#000000;stroke-width:0.85;stroke-linecap:round;stroke-linejoin:round;stroke-miterlimit:10;stroke-dasharray:none;stroke-opacity:1"
         d="m -434.73332,203.43878 c -0.51001,1.69408 0.50132,6.58207 0.0918,8.03748 -0.14708,4.38224 2.51931,6.34466 4.723,1.29781"
         sodipodi:nodetypes="ccc" /><path
         id="path1980"
         style="fill:none;stroke:#000000;stroke-width:0.85;stroke-linecap:round;stroke-linejoin:round;stroke-miterlimit:10;stroke-dasharray:none;stroke-opacity:1"
         d="m -426.0675,211.40707 c 1.91985,-4.87548 -4.88368,-1.37039 -4.929,1.531 -1.47763,6.56894 8.46187,0.65178 5.425,-1.738 -0.48586,1.83665 0.76438,3.69247 2.278,4.637" /><path
         id="path1982"
         style="fill:none;stroke:#000000;stroke-width:0.85;stroke-linecap:round;stroke-linejoin:round;stroke-miterlimit:10;stroke-dasharray:none;stroke-opacity:1"
         d="m -421.8875,210.20407 c 3.55106,2.35246 1.38879,7.89357 3.105,0.914 1.80191,-5.65544 4.02905,1.68329 4.102,3.847" /><path
         id="path1984"
         style="fill:none;stroke:#000000;stroke-width:0.85;stroke-linecap:round;stroke-linejoin:round;stroke-miterlimit:10;stroke-dasharray:none;stroke-opacity:1"
         d="m -407.5165,213.51607 c 2.51524,-4.84423 -5.18122,-5.96569 -4.598,-0.621 -0.65123,5.23233 4.803,2.6476 4.598,0.621 1.15333,3.69704 1.28327,9.76597 -4.516,10.395 -0.66343,-0.0763 -1.15913,-0.65535 -1.281,-1.285"
         sodipodi:nodetypes="ccccc" /><path
         id="path1986"
         style="fill:none;stroke:#000000;stroke-width:0.85;stroke-linecap:round;stroke-linejoin:round;stroke-miterlimit:10;stroke-dasharray:none;stroke-opacity:1"
         d="m -405.2395,210.95007 c -3.70788,4.01568 4.35508,6.73062 5.051,1.117 0.13359,-4.62705 -0.70268,2.4693 0.992,3.066" /><path
         id="path1988"
         style="fill:none;stroke:#000000;stroke-width:0.85;stroke-linecap:round;stroke-linejoin:round;stroke-miterlimit:10;stroke-dasharray:none;stroke-opacity:1"
         d="m -390.3755,211.11807 c -0.82519,-5.7411 -8.71525,1.41347 -4.68,4.015 3.85181,2.29951 4.98451,-7.07649 4.46009,-1.83964 0.23512,0.99664 0.55585,2.03226 1.42291,2.66864" /><path
         id="path1990"
         style="fill:none;stroke:#000000;stroke-width:0.85;stroke-linecap:round;stroke-linejoin:round;stroke-miterlimit:10;stroke-dasharray:none;stroke-opacity:1"
         d="m -380.2705,212.36007 c 4.48847,-3.98574 -2.85386,-3.69932 -4.15057,-0.99243 -4.3115,4.8049 6.57095,3.56849 4.15057,0.99243 -3.07294,1.84223 4.23461,6.69442 -0.289,9.066 -2.2988,1.44216 -6.45086,5.26675 -8.988,2.856"
         sodipodi:nodetypes="ccccc" /><path
         id="path1992"
         style="fill:none;stroke:#000000;stroke-width:0.85;stroke-linecap:round;stroke-linejoin:round;stroke-miterlimit:10;stroke-dasharray:none;stroke-opacity:1"
         d="m -375.4265,212.15307 c -1.16192,2.39118 6.01033,-0.63743 3.394,-2.816 -3.99276,-0.52836 -6.18583,7.82399 -0.621,6.003 0.90638,-0.13144 1.80177,-0.32619 2.692,-0.539" /><path
         id="path1994"
         style="fill:none;stroke:#000000;stroke-width:0.85;stroke-linecap:round;stroke-linejoin:round;stroke-miterlimit:10;stroke-dasharray:none;stroke-opacity:1"
         d="m -362.3835,209.13007 c -3.76406,-1.02952 -6.88722,1.82044 -1.19227,2.6013 6.7748,0.92892 -1.64621,2.76542 -3.7547,2.5868"
         sodipodi:nodetypes="csc" /></g><g
       style="stroke:#000000"
       transform="translate(492.30882,208.78749)"
       id="g3243"><path
         id="path1996"
         style="fill:none;stroke:#000000;stroke-width:0.85;stroke-linecap:round;stroke-linejoin:round;stroke-miterlimit:10;stroke-dasharray:none;stroke-opacity:1"
         d="m -404.3133,252.23507 c 1.5315,-4.72428 -7.82783,-1.26133 -2.817,0.91 4.56244,2.45002 0.19337,4.02022 -2.609,2.402" /><path
         sodipodi:nodetypes="csc"
         id="path1998"
         style="fill:none;stroke:#000000;stroke-width:0.85;stroke-linecap:round;stroke-linejoin:round;stroke-miterlimit:10;stroke-dasharray:none;stroke-opacity:1"
         d="m -399.9663,257.20407 c 2.35447,-0.89784 3.41834,-4.63188 0.848,-4.8245 -3.89955,-0.29223 -4.82227,5.88768 -0.848,4.8245 z" /><path
         id="path2000"
         style="fill:none;stroke:#000000;stroke-width:0.85;stroke-linecap:round;stroke-linejoin:round;stroke-miterlimit:10;stroke-dasharray:none;stroke-opacity:1"
         d="m -396.6533,252.73107 c 2.51032,0.81861 2.46615,8.90167 3.558,1.613 2.4653,-3.743 1.82195,9.885 2.817,1.493 1.36857,-5.83314 3.10204,1.83068 4.015,3.312" /><path
         id="path2002"
         style="fill:none;stroke:#000000;stroke-width:0.85;stroke-linecap:round;stroke-linejoin:round;stroke-miterlimit:10;stroke-dasharray:none;stroke-opacity:1"
         d="m -384.1493,256.45807 c 1.71912,2.00812 7.64551,-3.25336 3.644,-4.391 -4.46106,0.14889 -7.16787,8.05891 -1.285,8.117 1.55064,-0.0827 3.06103,-0.46199 4.516,-0.992" /><path
         id="path2004"
         style="fill:none;stroke:#000000;stroke-width:0.85;stroke-linecap:round;stroke-linejoin:round;stroke-miterlimit:10;stroke-dasharray:none;stroke-opacity:1"
         d="m -362.53947,252.81307 c -2.05855,-3.03137 -7.96143,0.68842 -2.07,2.113 3.63078,0.87794 -2.09049,2.60636 -3.23,1.614"
         sodipodi:nodetypes="csc" /><path
         id="path2006"
         style="fill:none;stroke:#000000;stroke-width:0.85;stroke-linecap:round;stroke-linejoin:round;stroke-miterlimit:10;stroke-dasharray:none;stroke-opacity:1"
         d="m -358.43747,244.48907 c -0.29236,1.39276 -1.31749,7.52852 -1.54335,10.62965 -0.78649,3.91249 1.35257,3.85456 2.84583,0.60127"
         sodipodi:nodetypes="ccc" /><path
         id="path2008"
         style="fill:none;stroke:#000000;stroke-width:0.85;stroke-linecap:round;stroke-linejoin:round;stroke-miterlimit:10;stroke-dasharray:none;stroke-opacity:1"
         d="m -352.22647,258.32107 c 2.10484,-1.10607 0.65411,-3.58559 -0.9315,-3.7875 -1.83938,-0.23422 -5.43627,6.81055 0.9315,3.7875 z"
         sodipodi:nodetypes="csc" /><path
         id="path2010"
         style="fill:none;stroke:#000000;stroke-width:0.85;stroke-linecap:round;stroke-linejoin:round;stroke-miterlimit:10;stroke-dasharray:none;stroke-opacity:1"
         d="m -348.03312,253.47878 c 1.08659,0.99057 1.45762,6.4648 2.72065,1.81829 0.76494,-4.30456 1.30263,7.92412 4.309,-0.453"
         sodipodi:nodetypes="ccc" /><path
         id="path2012"
         style="fill:none;stroke:#000000;stroke-width:0.85;stroke-linecap:round;stroke-linejoin:round;stroke-miterlimit:10;stroke-dasharray:none;stroke-opacity:1"
         d="m -332.69682,245.57214 c -0.65815,1.21469 0.1189,7.10811 -0.0817,8.54608 -0.27655,1.9826 -0.91421,8.83283 2.39015,4.91059"
         sodipodi:nodetypes="csc" /><path
         id="path2014"
         style="fill:none;stroke:#000000;stroke-width:0.85;stroke-linecap:round;stroke-linejoin:round;stroke-miterlimit:10;stroke-dasharray:none;stroke-opacity:1"
         d="m -323.1295,253.77407 c -1.57135,-2.63873 -5.64205,-1.52884 -4.883,2.816 0.006,5.32958 5.21233,0.047 4.883,-2.816 0.009,1.80099 -0.12386,4.21052 1.41,5.465"
         sodipodi:nodetypes="cccc" /><path
         id="path2016"
         style="fill:none;stroke:#000000;stroke-width:0.85;stroke-linecap:round;stroke-linejoin:round;stroke-miterlimit:10;stroke-dasharray:none;stroke-opacity:1"
         d="m -319.18647,253.80328 c 0.3208,0.96979 0.44156,3.7801 0.68132,4.3193 0.14417,0.32422 -0.38204,-0.5085 -0.0825,-2.72035 0.31729,-6.9376 5.10281,0.36891 4.69211,3.09084"
         sodipodi:nodetypes="cscc" /><path
         id="path2018"
         style="fill:none;stroke:#000000;stroke-width:0.85;stroke-linecap:round;stroke-linejoin:round;stroke-miterlimit:10;stroke-dasharray:none;stroke-opacity:1"
         d="m -305.1995,254.72707 c -0.15755,-5.81502 -8.1464,-0.47467 -5.465,3.352 1.87896,3.34078 6.46683,-0.56701 5.465,-3.352 0.37651,3.02184 2.00038,7.87385 -1.696,10.516 -0.76091,0.81407 -3.50826,2.56845 -3.933,0.539"
         sodipodi:nodetypes="ccccc" /><path
         id="path2020"
         style="fill:none;stroke:#000000;stroke-width:0.85;stroke-linecap:round;stroke-linejoin:round;stroke-miterlimit:10;stroke-dasharray:none;stroke-opacity:1"
         d="m -301.63225,253.39455 c -1.51108,3.6456 3.22786,7.76642 4.21775,1.91052 1.60898,-5.83719 -2.03155,2.2956 1.117,3.313"
         sodipodi:nodetypes="ccc" /><path
         id="path2022"
         style="fill:none;stroke:#000000;stroke-width:0.85;stroke-linecap:round;stroke-linejoin:round;stroke-miterlimit:10;stroke-dasharray:none;stroke-opacity:1"
         d="m -288.7195,253.85607 c -0.45414,-1.39278 -2.60935,-3.40276 -4.348,0.578 -2.3001,5.38916 4.85781,3.95521 4.348,-0.578 0.007,1.64385 -0.0247,3.59143 1.242,4.844"
         sodipodi:nodetypes="cccc" /><path
         id="path2024"
         style="fill:none;stroke:#000000;stroke-width:0.85;stroke-linecap:round;stroke-linejoin:round;stroke-miterlimit:10;stroke-dasharray:none;stroke-opacity:1"
         d="m -280.3955,255.34807 c 1.52581,-5.89394 -7.35085,1.44621 -3.062,3.313 4.20929,0.61665 3.01398,-7.24742 3.519,-1.864 3.08558,2.99255 -0.10407,8.55574 -3.769,7.95 v -0.371 l 0.125,-0.332" /><path
         id="path2026"
         style="fill:none;stroke:#000000;stroke-width:0.85;stroke-linecap:round;stroke-linejoin:round;stroke-miterlimit:10;stroke-dasharray:none;stroke-opacity:1"
         d="m -275.8405,255.55507 c 4.93485,2.37777 3.65829,-7.86919 -0.4544,-1.49565 -3.55957,5.90405 3.98748,6.37703 7.1224,3.35965" /><path
         id="path2028"
         style="fill:none;stroke:#000000;stroke-width:0.85;stroke-linecap:round;stroke-linejoin:round;stroke-miterlimit:10;stroke-dasharray:none;stroke-opacity:1"
         d="m -263.39395,253.04436 c -0.6005,-2.20539 -6.641,-0.59935 -3.46255,0.97571 2.991,1.48217 5.24072,4.20271 -0.535,3.813"
         sodipodi:nodetypes="csc" /></g><g
       style="stroke:#000000"
       transform="translate(-17.398016,140.35104)"
       id="g3261"><g
         style="stroke:#000000"
         id="g3254"
         transform="translate(778.11285,-86.616075)"><path
           d="m -425.3215,310.38007 c 1.8,-1.82434 0.57635,5.52189 1.821,7.328 0.87505,2.16833 -2.31961,3.7392 -2.856,1.117"
           style="fill:none;stroke:#000000;stroke-width:0.85;stroke-linecap:round;stroke-linejoin:round;stroke-miterlimit:10;stroke-dasharray:none;stroke-opacity:1"
           id="path2040" /><path
           d="m -423.9575,303.91907 c -0.68132,-0.26009 -1.04407,-1.52469 -0.328,-1.946"
           style="fill:none;stroke:#000000;stroke-width:0.85;stroke-linecap:round;stroke-linejoin:round;stroke-miterlimit:10;stroke-dasharray:none;stroke-opacity:1"
           id="path2042" /><path
           d="m -414.5985,309.92307 c -4.74046,-1.32205 -4.14236,2.69646 -0.207,3.394 -0.55317,1.11232 -2.45081,1.42701 -3.437,0.789"
           style="fill:none;stroke:#000000;stroke-width:0.85;stroke-linecap:round;stroke-linejoin:round;stroke-miterlimit:10;stroke-dasharray:none;stroke-opacity:1"
           id="path2044" /></g></g><g
       style="stroke:#ffffff"
       id="g903" /><path
       id="path917"
       style="fill:none;stroke:#000000;stroke-width:0.849999;stroke-linecap:round;stroke-linejoin:round;stroke-miterlimit:10;stroke-dasharray:none;stroke-opacity:1"
       d="M 45.586001,317.93801 H 235.9439 V 479.87582 H 45.586001 Z" /><path
       id="path941"
       style="fill:none;stroke:#000000;stroke-width:0.849999;stroke-linecap:round;stroke-linejoin:round;stroke-miterlimit:10;stroke-dasharray:none;stroke-opacity:1"
       d="m 190.6174,392.74337 -0.21948,4.80625 -0.65538,4.76503 -1.08366,4.69328 -1.50586,4.5696 -1.91737,4.41235 -2.30451,4.22303 -2.67944,3.99554 -3.03609,3.73294 -3.35769,3.44133 -3.6549,3.11918 -3.92467,2.77871 -4.16091,2.40466 -4.36362,2.02143 -4.52518,1.61074 -4.65626,1.1924 -4.74466,0.76338 -4.79343,0.32826 -4.8041,-0.1084 -4.77515,-0.54811 -4.7035,-0.97866 -4.59529,-1.40767 -4.44746,-1.81227 -4.26912,-2.21228 -4.04813,-2.59398 -3.79359,-2.95276 -3.51163,-3.2856 -3.197649,-3.59095 -2.863866,-3.87034 -2.495023,-4.11005 -2.112463,-4.3238 -1.708564,-4.49632 -1.298571,-4.63984 -0.868762,-4.72992 -0.440477,-4.79404 v -4.81389 l 0.440477,-4.79404 0.868762,-4.72991 1.298571,-4.63373 1.708564,-4.50243 2.112463,-4.31769 2.495023,-4.11616 2.863866,-3.87035 3.197649,-3.58942 3.51163,-3.28712 3.79359,-2.95124 4.04813,-2.58939 4.26912,-2.21839 4.44746,-1.81227 4.59529,-1.40768 4.7035,-0.97865 4.77515,-0.54811 4.8041,-0.10688 4.79343,0.32673 4.74466,0.76338 4.65626,1.19393 4.52518,1.60921 4.36362,2.02297 4.16091,2.40312 3.92467,2.77872 3.6549,3.11918 3.35769,3.44132 3.03609,3.73294 2.67944,3.99707 2.30451,4.2215 1.91737,4.41388 1.50586,4.57419 1.08366,4.68716 0.65538,4.76504 0.21948,4.81389" /><path
       sodipodi:nodetypes="cc"
       id="path943"
       style="fill:none;stroke:#000000;stroke-width:0.849999;stroke-linecap:round;stroke-linejoin:round;stroke-miterlimit:10;stroke-dasharray:none;stroke-opacity:1"
       d="m 141.20772,339.85036 v 54.40756" /><path
       sodipodi:nodetypes="cc"
       id="path945"
       style="fill:none;stroke:#000000;stroke-width:0.849999;stroke-linecap:round;stroke-linejoin:round;stroke-miterlimit:10;stroke-dasharray:none;stroke-opacity:1"
       d="M 141.37106,394.72205 H 189.6892" /><path
       sodipodi:nodetypes="cc"
       id="path955"
       style="fill:none;stroke:#000000;stroke-width:0.849999;stroke-linecap:round;stroke-linejoin:round;stroke-miterlimit:10;stroke-dasharray:none;stroke-opacity:1"
       d="m 141.37106,394.72205 35.84455,33.21934" /><path
       sodipodi:nodetypes="cc"
       d="m 167.50522,406.57361 c 28.51692,-9.41765 16.54315,45.32201 14.85874,49.13111"
       style="fill:none;stroke:#000000;stroke-width:0.849999;stroke-linecap:round;stroke-linejoin:round;stroke-miterlimit:10;stroke-dasharray:none;stroke-opacity:1"
       id="path965" /><path
       id="path1001"
       style="fill:none;stroke:#000000;stroke-width:0.849999;stroke-linecap:round;stroke-linejoin:round;stroke-miterlimit:10;stroke-dasharray:none;stroke-opacity:1"
       d="M 280.36354,319.21286 H 489.09957 V 481.00867 H 280.36354 Z" /><path
       id="path1029"
       style="fill:none;stroke:#000000;stroke-width:0.849999;stroke-linecap:round;stroke-linejoin:round;stroke-miterlimit:10;stroke-dasharray:none;stroke-opacity:1"
       d="m 415.68462,389.94633 -0.23776,4.85969 -0.71483,4.81389 -1.17816,4.72228 -1.63693,4.5803 -2.07893,4.40166 -2.4935,4.17417 -2.89435,3.907 -3.26319,3.60774 -3.60155,3.2688 -3.89876,2.8978 -4.16853,2.50542 -4.39411,2.07487 -4.57243,1.64128 -4.71418,1.18629 -4.80562,0.70995 -4.85135,0.23817 -4.85287,-0.23817 -4.8041,-0.70995 -4.7157,-1.18629 -4.57243,-1.64128 -4.39411,-2.07487 -4.16701,-2.50542 -3.90028,-2.8978 -3.60155,-3.2688 -3.26319,-3.60774 -2.89283,-3.907 -2.49502,-4.17417 -2.07741,-4.40166 -1.63693,-4.5803 -1.18578,-4.72228 -0.70873,-4.81389 -0.23776,-4.85969 0.23776,-4.86122 0.70873,-4.81236 1.18578,-4.72381 1.63693,-4.58029 2.07741,-4.40166 2.49502,-4.17418 2.89283,-3.90699 3.26319,-3.60774 3.60155,-3.2688 3.90028,-2.8978 4.16701,-2.49932 4.39411,-2.08098 4.57243,-1.63974 4.7157,-1.18172 4.8041,-0.71605 4.85287,-0.23818 4.85135,0.23818 4.80562,0.71605 4.71418,1.18172 4.57243,1.63974 4.39411,2.08098 4.16853,2.49932 3.89876,2.8978 3.60155,3.2688 3.26319,3.60774 2.89435,3.90699 2.4935,4.17418 2.07893,4.40166 1.63693,4.58029 1.17816,4.72381 0.71483,4.81236 0.23776,4.86122" /><path
       sodipodi:nodetypes="cc"
       id="path1031"
       style="fill:none;stroke:#000000;stroke-width:0.849999;stroke-linecap:round;stroke-linejoin:round;stroke-miterlimit:10;stroke-dasharray:none;stroke-opacity:1"
       d="m 342.84123,346.21216 24.73228,39.80886" /><path
       sodipodi:nodetypes="cc"
       id="path1033"
       style="fill:none;stroke:#000000;stroke-width:0.849999;stroke-linecap:round;stroke-linejoin:round;stroke-miterlimit:10;stroke-dasharray:none;stroke-opacity:1"
       d="m 367.57351,386.02102 32.04207,-30.60705" /><path
       id="path1035"
       style="fill:none;stroke:#000000;stroke-width:0.849999;stroke-linecap:round;stroke-linejoin:round;stroke-miterlimit:10;stroke-dasharray:none;stroke-opacity:1"
       d="m 374.85434,359.91793 -0.38103,-0.1252 1.07757,0.88247 1.07147,0.82293 2.5255,2.14663 0.75598,0.82293 0.56546,0.82292 0.38103,0.88247 0.3155,0.88858 0.12498,0.88247 0.0655,0.82293 -0.19052,0.69315 -0.19052,0.63208 -0.44048,0.38169 -0.56545,0.31604 -0.50602,0.19084 h -1.13853 l -0.38104,-0.19084 -0.37494,-0.31604 -0.25605,-0.38169" /><path
       sodipodi:nodetypes="cc"
       id="path1037"
       style="fill:none;stroke:#000000;stroke-width:0.849999;stroke-linecap:round;stroke-linejoin:round;stroke-miterlimit:10;stroke-dasharray:none;stroke-opacity:1"
       d="m 371.85681,357.92492 -1.89369,-1.39539" /><path
       sodipodi:nodetypes="cccccccccccccccccccccccccc"
       id="path1039"
       style="fill:none;stroke:#000000;stroke-width:0.849999;stroke-linecap:round;stroke-linejoin:round;stroke-miterlimit:10;stroke-dasharray:none;stroke-opacity:1"
       d="m 379.79294,357.9751 -0.12498,0.31604 -0.12498,0.50688 -0.13108,0.44124 0.0655,0.56643 0.12498,0.69773 0.3155,0.63361 0.38103,0.50688 0.37647,0.44124 0.25605,0.19084 0.3155,0.0596 h 0.37494 l 0.44657,-0.25039 0.37494,-0.57254 0.19052,-0.75727 0.0655,-0.884 -0.3155,-0.69773 -0.3155,-0.63208 -0.44657,-0.37559 -0.44048,-0.19084 -0.31549,-0.1252 -0.19052,0.18474 0.12955,0.57254 0.37646,0.56643 1.32753,1.32981 0.88096,0.63361" /><path
       sodipodi:nodetypes="ccsc"
       d="m 382.80885,356.12392 c 2.69643,1.42685 2.32805,1.43084 5.33661,1.92234 -0.5883,-1.05144 -0.68599,-1.63169 -0.79433,-2.22606 -0.10833,-0.59437 -0.22731,-1.20285 -0.85818,-2.31076"
       style="fill:none;stroke:#000000;stroke-width:0.849999;stroke-linecap:round;stroke-linejoin:round;stroke-miterlimit:10;stroke-dasharray:none;stroke-opacity:1"
       id="path1041" /><path
       sodipodi:nodetypes="cccccccccccccccccccccccc"
       id="path1043"
       style="fill:none;stroke:#000000;stroke-width:0.849999;stroke-linecap:round;stroke-linejoin:round;stroke-miterlimit:10;stroke-dasharray:none;stroke-opacity:1"
       d="m 392.20976,350.94208 -1.4454,0.84615 -0.99739,0.86079 -0.1422,1.26262 0.25148,0.50688 0.44048,0.44124 0.57156,0.31604 0.69043,0.31604 0.57156,-0.0657 0.49992,-0.31604 0.25605,-0.56643 0.19052,-0.75728 0.12498,-0.82292 -0.0655,-0.69774 -0.0594,-0.69162 -0.25606,-0.50689 -0.19051,-0.31604 -0.24996,-0.19084 -0.19052,0.38169 0.19052,0.44123 0.44047,0.63209 0.69654,0.50688 0.88095,0.37559 0.69654,0.19084" /><path
       id="path1047"
       style="fill:none;stroke:#000000;stroke-width:0.849999;stroke-linecap:round;stroke-linejoin:round;stroke-miterlimit:10;stroke-dasharray:none;stroke-opacity:1"
       d="m 392.33474,369.77625 v -0.37559 l -0.49992,-0.12672 -0.44657,0.25192 -0.94649,0.82292 -0.88096,1.00767 -0.7575,1.07942 -0.63099,1.00766 0.18442,0.63209 0.31702,0.57253 0.69653,0.63208 0.82152,0.44124 0.82151,0.37558 0.88096,0.19085 0.82151,0.0657 0.94649,0.0595 h 0.69654" /><path
       sodipodi:nodetypes="cc"
       id="path1049"
       style="fill:none;stroke:#000000;stroke-width:0.849999;stroke-linecap:round;stroke-linejoin:round;stroke-miterlimit:10;stroke-dasharray:none;stroke-opacity:1"
       d="m 398.678,373.36639 3.84093,0.0589" /><path
       sodipodi:nodetypes="ccccc"
       id="path1051"
       style="fill:none;stroke:#000000;stroke-width:0.849999;stroke-linecap:round;stroke-linejoin:round;stroke-miterlimit:10;stroke-dasharray:none;stroke-opacity:1"
       d="m 400.92024,370.47398 -0.12498,1.13896 v 1.38936 l 0.12498,1.51455 0.19052,1.39546" /><path
       sodipodi:nodetypes="cc"
       id="path1053"
       style="fill:none;stroke:#000000;stroke-width:0.849999;stroke-linecap:round;stroke-linejoin:round;stroke-miterlimit:10;stroke-dasharray:none;stroke-opacity:1"
       d="m 404.41273,373.37995 3.55119,-0.0667" /><path
       sodipodi:nodetypes="cc"
       id="path1055"
       style="fill:none;stroke:#000000;stroke-width:0.849999;stroke-linecap:round;stroke-linejoin:round;stroke-miterlimit:10;stroke-dasharray:none;stroke-opacity:1"
       d="m 406.28701,371.03421 -0.22831,4.81586" /><path
       sodipodi:nodetypes="cc"
       id="path1057"
       style="fill:none;stroke:#000000;stroke-width:0.849999;stroke-linecap:round;stroke-linejoin:round;stroke-miterlimit:10;stroke-dasharray:none;stroke-opacity:1"
       d="m 367.57351,386.02102 39.771,31.4773" /><path
       id="path1059"
       style="fill:none;stroke:#000000;stroke-width:0.849999;stroke-linecap:round;stroke-linejoin:round;stroke-miterlimit:10;stroke-dasharray:none;stroke-opacity:1"
       d="m 397.51378,392.22427 -0.38103,-0.3817 -0.24996,-0.12519 -0.3155,-0.1252 -0.44657,-0.19084 -0.9465,-0.0657 -0.88095,0.12519 -0.9465,0.44734 -0.94649,0.63209 -0.56546,0.75727 -0.57155,0.75728 -0.44048,0.75727 -0.31549,0.75728 -0.19052,0.76338 -0.12498,0.75727 v 0.69163 l 0.0655,0.63208 0.37494,0.63208 0.57155,0.57406 0.75597,0.50689 0.9465,0.44123 0.94649,0.25039 0.94649,0.19085 0.69044,0.0657 0.50602,0.0595" /><path
       sodipodi:nodetypes="ccccccc"
       id="path1061"
       style="fill:none;stroke:#000000;stroke-width:0.849999;stroke-linecap:round;stroke-linejoin:round;stroke-miterlimit:10;stroke-dasharray:none;stroke-opacity:1"
       d="m 402.74769,391.52653 v -0.25039 1.76494 l 0.0655,1.64586 v 1.96189 l 0.0655,2.08098 v 4.74213" /><path
       id="path1063"
       style="fill:none;stroke:#000000;stroke-width:0.849999;stroke-linecap:round;stroke-linejoin:round;stroke-miterlimit:10;stroke-dasharray:none;stroke-opacity:1"
       d="m 406.40868,390.8288 -0.19051,0.31604 -0.18442,0.44734 -0.19052,0.63209 -0.19052,0.88246 -0.19052,0.82293 -0.0594,0.94812 -0.13108,1.07332 -0.0594,1.13896 v 2.4642 l 0.0594,1.13897 0.25606,1.19851 0.24996,0.76338 0.19052,0.50078" /><path
       sodipodi:nodetypes="ccccccccc"
       id="path1065"
       style="fill:none;stroke:#000000;stroke-width:0.849999;stroke-linecap:round;stroke-linejoin:round;stroke-miterlimit:10;stroke-dasharray:none;stroke-opacity:1"
       d="m 397.63876,397.09006 0.82152,0.0596 1.32295,-0.25039 1.76801,-0.25039 1.89299,-0.2565 1.82744,-0.25039 1.39307,-0.0657 1.26199,-0.12519 h 0.81542" /><path
       sodipodi:nodetypes="ccc"
       id="path1067"
       style="fill:none;stroke:#000000;stroke-width:0.849999;stroke-linecap:round;stroke-linejoin:round;stroke-miterlimit:10;stroke-dasharray:none;stroke-opacity:1"
       d="m 398.14478,400.44284 c 2.31459,-1.02293 4.90338,-0.94965 7.38295,-0.94965 l 1.07147,0.0611" /><path
       sodipodi:nodetypes="cc"
       id="path1069"
       style="fill:none;stroke:#000000;stroke-width:0.849999;stroke-linecap:round;stroke-linejoin:round;stroke-miterlimit:10;stroke-dasharray:none;stroke-opacity:1"
       d="m 367.57351,386.02102 8.2639,52.5665" /><path
       sodipodi:nodetypes="csc"
       d="m 388.48783,417.48153 c -0.58494,5.31128 -0.64618,19.8571 5.51853,19.35717 7.23244,-0.58652 13.66567,2.56575 12.85746,14.6393"
       style="fill:none;stroke:#000000;stroke-width:0.849999;stroke-linecap:round;stroke-linejoin:round;stroke-miterlimit:10;stroke-dasharray:none;stroke-opacity:1"
       id="path1071" /><path
       sodipodi:nodetypes="cc"
       id="path1105"
       style="fill:none;stroke:#000000;stroke-width:0.849999;stroke-linecap:round;stroke-linejoin:round;stroke-miterlimit:10;stroke-dasharray:none;stroke-opacity:1"
       d="m 318.80701,375.54894 48.7665,10.47208" /><g
       style="stroke:#000000"
       transform="rotate(-60,373.0251,390.7806)"
       id="g3294"><path
         d="m 346.0145,347.68549 -0.25606,0.0657 -0.82151,0.94812 -1.07147,1.13897 -1.19646,1.38935 -2.0835,2.08709 -0.75598,0.69163 -0.63099,0.57406 -0.50602,0.44123 -0.38103,0.31604 -0.25149,0.19085 -0.24996,0.0595 0.24996,-0.37558 0.88248,-0.63208 1.13701,-0.8901 1.38697,-1.13897 1.32753,-1.26416 0.88096,-1.00767 0.88705,-0.88857 0.82151,-0.69163 0.75598,-0.50688 0.56546,-0.19085 0.50601,-0.12519 0.3155,0.19084 0.24996,0.31604 0.25605,0.56643 0.12498,0.63208 0.12651,0.57254 0.064,0.50078 v 0.31604 l -0.63099,0.38169 -0.57156,-0.0657 -0.63099,-0.0596 -0.56546,-0.25649 -0.69653,-0.37559 -0.44048,-0.50688 -0.37494,-0.50689 -0.3155,-0.44123 -0.0655,-0.31604 -0.0655,-0.25039"
         style="fill:none;stroke:#000000;stroke-width:0.849999;stroke-linecap:round;stroke-linejoin:round;stroke-miterlimit:10;stroke-dasharray:none;stroke-opacity:1"
         id="path1107" /><path
         d="m 348.78996,353.43987 -0.442,0.69315 -0.3155,0.69773 -0.19051,0.75727 -0.12498,0.57254 0.31549,0.50078 0.37647,0.44734 0.63099,0.25039 0.69654,0.19085 h 0.69653 l 0.631,-0.0657 0.56545,-0.1252 0.50602,-0.12519 0.3155,-0.2565 0.24996,-0.31604 h -0.37494 l -0.9465,0.44734 -1.26199,0.44124 -1.57901,0.75727 -1.57749,0.82293 -1.13701,0.63208 -1.07147,0.69162 -0.82152,0.44734 -0.57155,0.50078 -0.37494,0.38169"
         style="fill:none;stroke:#000000;stroke-width:0.849999;stroke-linecap:round;stroke-linejoin:round;stroke-miterlimit:10;stroke-dasharray:none;stroke-opacity:1"
         id="path1109"
         sodipodi:nodetypes="ccccccccccccccccccccccccc" /><path
         d="m 358.32877,355.2565 -0.88705,0.75728 -1.19645,0.88857 -1.45251,1.13897 -1.32144,1.19851 -0.88705,0.75728 -0.63099,0.57253 -0.37494,0.50078 v 0.57254 l 0.24996,0.37558 0.44048,0.57254 0.50601,0.31604"
         style="fill:none;stroke:#000000;stroke-width:0.849999;stroke-linecap:round;stroke-linejoin:round;stroke-miterlimit:10;stroke-dasharray:none;stroke-opacity:1"
         id="path1111"
         sodipodi:nodetypes="cccccccccccc" /><path
         d="m 354.5428,356.32982 c 0.0271,1.1577 0.24996,1.7115 1.42111,2.73724"
         style="fill:none;stroke:#000000;stroke-width:0.849999;stroke-linecap:round;stroke-linejoin:round;stroke-miterlimit:10;stroke-dasharray:none;stroke-opacity:1"
         id="path1113"
         sodipodi:nodetypes="cc" /><path
         d="m 359.7543,359.06575 -1.13701,0.94812 -1.32753,1.20462 -1.32143,1.3237 -1.26199,1.20615 -0.69654,0.56643 -0.44047,0.38169 -0.19052,0.25039 0.57155,0.19084 h 0.69044 l 0.82151,-0.19084 0.88096,-0.19085 0.82151,-0.31604 0.631,-0.25039 0.44047,-0.12519 0.25606,-0.0657 -0.19052,0.19084 -0.69653,0.75728 -0.69044,0.82292 -0.69653,1.01377 -0.50602,0.75728"
         style="fill:none;stroke:#000000;stroke-width:0.849999;stroke-linecap:round;stroke-linejoin:round;stroke-miterlimit:10;stroke-dasharray:none;stroke-opacity:1"
         id="path1115"
         sodipodi:nodetypes="ccccccccccccccccccccc" /><path
         d="m 360.37478,368.15313 -0.17375,0.66261 -0.48773,0.48857 -0.66148,0.18016 -0.66605,-0.18016 -0.48315,-0.48857 -0.17833,-0.66261 0.17833,-0.66109 0.48315,-0.49009 0.66605,-0.17863 0.66148,0.17863 0.48773,0.49009 0.17375,0.66109"
         style="fill:none;stroke:#000000;stroke-width:0.849999;stroke-linecap:round;stroke-linejoin:round;stroke-miterlimit:10;stroke-dasharray:none;stroke-opacity:1"
         id="path1117" /><path
         d="m 364.24449,368.22264 -2.96609,3.07126 c 1.42747,-0.55419 3.23426,-2.09808 4.16853,-1.01378 1.24674,1.44695 -0.81276,2.41049 -1.91361,4.0266"
         style="fill:none;stroke:#000000;stroke-width:0.849999;stroke-linecap:round;stroke-linejoin:round;stroke-miterlimit:10;stroke-dasharray:none;stroke-opacity:1"
         id="path1119"
         sodipodi:nodetypes="ccsc" /></g><path
       sodipodi:nodetypes="cc"
       id="path1123"
       style="fill:none;stroke:#000000;stroke-width:0.849999;stroke-linecap:round;stroke-linejoin:round;stroke-miterlimit:10;stroke-dasharray:none;stroke-opacity:1"
       d="m 325.01637,417.49832 42.55714,-31.4773" /><path
       sodipodi:nodetypes="cc"
       id="path1125"
       style="fill:none;stroke:#000000;stroke-width:0.849999;stroke-linecap:round;stroke-linejoin:round;stroke-miterlimit:10;stroke-dasharray:none;stroke-opacity:1"
       d="m 331.17239,425.01306 36.40112,-38.99204" /><g
       style="stroke:#000000"
       transform="translate(1.8292839,98.01221)"
       id="g3285"><path
         d="m 290.91366,332.82855 0.3155,-0.1252 0.57155,-0.12519 0.24996,0.12519 0.25606,0.44124 0.75597,1.07942 0.56546,1.26569 0.57156,1.13286 0.49991,1.07942 v 0.69162 l -0.24995,0.1252 -0.24996,-0.63208 -0.3155,-1.00767 -0.3155,-1.20462 -0.3155,-1.13438 -0.0655,-0.9527 0.19052,-0.50231 0.37494,-0.31604 0.50602,-0.19084 0.38103,-0.2565 0.56546,-0.0595 0.44048,-0.0657 0.57155,-0.1252 h 1.07147"
         style="fill:none;stroke:#000000;stroke-width:0.849999;stroke-linecap:round;stroke-linejoin:round;stroke-miterlimit:10;stroke-dasharray:none;stroke-opacity:1"
         id="path1129" /><path
         d="m 300.88613,332.82855 v 0.44123 l 0.44658,0.82445 0.49992,0.63208 0.44657,0.50689 0.56546,0.2565 0.19052,-0.44735 0.12498,-0.63208 0.31549,-0.6336 0.12498,-0.56643 0.19052,-0.44124 0.19052,-0.31604 v -0.25649 l 0.19052,0.88857 0.18442,1.13897 0.38103,1.07484 0.38104,0.88247"
         style="fill:none;stroke:#000000;stroke-width:0.849999;stroke-linecap:round;stroke-linejoin:round;stroke-miterlimit:10;stroke-dasharray:none;stroke-opacity:1"
         id="path1131" /><path
         d="m 309.85802,331.3767 c -1.70383,-0.0739 -4.03131,2.1384 -0.45192,2.59234 1.50411,0.19075 2.56932,3.76158 -1.13272,3.3694"
         style="fill:none;stroke:#000000;stroke-width:0.849999;stroke-linecap:round;stroke-linejoin:round;stroke-miterlimit:10;stroke-dasharray:none;stroke-opacity:1"
         id="path1133"
         sodipodi:nodetypes="csc" /><path
         d="m 316.49031,324.51531 0.41282,12.29688 c 0.0344,1.02593 1.39361,0.62615 2.14188,-0.32645"
         style="fill:none;stroke:#000000;stroke-width:0.849999;stroke-linecap:round;stroke-linejoin:round;stroke-miterlimit:10;stroke-dasharray:none;stroke-opacity:1"
         id="path1135"
         sodipodi:nodetypes="csc" /><path
         d="m 313.38259,330.49107 1.32752,-0.19085 1.57749,-0.12519 h 1.32144"
         style="fill:none;stroke:#000000;stroke-width:0.849999;stroke-linecap:round;stroke-linejoin:round;stroke-miterlimit:10;stroke-dasharray:none;stroke-opacity:1"
         id="path1137"
         sodipodi:nodetypes="cccc" /></g><path
       id="path1139"
       style="fill:none;stroke:#000000;stroke-width:0.849999;stroke-linecap:round;stroke-linejoin:round;stroke-miterlimit:10;stroke-dasharray:none;stroke-opacity:1"
       d="m 333.38545,416.40613 0.0309,0.26789 -0.0468,0.36574 -0.0876,0.41705 -0.43071,0.94454 -0.73366,1.02892 -0.98137,1.23507 -1.31034,1.14107 -1.42963,0.87888 -1.38408,0.83137 -1.37822,0.91974 -1.25003,0.8639 -0.93451,0.86933 -0.68684,0.66315 -0.35178,0.44271" /><g
       style="stroke:#000000"
       transform="translate(56.277368,57.455769)"
       id="g3278"><path
         d="m 290.47319,362.04013 -0.50602,-0.63208 -0.56546,-0.69773 -0.75597,-0.63208 -0.82152,-0.63208 h -0.38103 l -0.50145,0.19084 -0.31549,0.31604 -0.38104,0.44124 -0.3155,0.56643 -0.24996,0.57254 -0.13107,0.63208 v 0.69162 l 0.19052,0.57254 0.38103,0.63208 0.56546,0.50688 0.69653,0.25192 0.56698,0.31604 0.44048,-0.44276 0.19052,-0.94812 0.25605,-0.82293 0.24996,-0.82293 0.19052,-0.31604 0.19052,-0.50688 0.12498,-0.37559 0.19052,-0.31604 0.0594,-0.25649 0.44048,0.88857 0.25605,1.07332 0.3155,1.38936 0.3155,1.33133 v 0.94813 l 0.0594,0.94812 -0.0594,0.82292 -0.0655,0.82293 -0.19052,0.75727 -0.37494,0.63208 -0.50601,0.56643 -0.75598,0.50689 -0.75597,0.31604 -0.88705,0.19085 -0.88248,0.19084 -0.9465,-0.1313 -0.88705,-0.0595 -0.69044,-0.19085 -0.50601,-0.19085 -0.3155,-0.19084"
         style="fill:none;stroke:#000000;stroke-width:0.849999;stroke-linecap:round;stroke-linejoin:round;stroke-miterlimit:10;stroke-dasharray:none;stroke-opacity:1"
         id="path1141"
         sodipodi:nodetypes="ccccccccccccccccccccccccccccccccccccccccccccccc" /><path
         d="m 298.17621,359.19577 h -0.63557 l -0.56698,0.18474 -0.75598,0.38169 -0.69653,0.69773 -0.631,1.00766 -0.50601,1.20462 -0.24996,1.26416 -0.0655,1.07484 0.13108,0.82293 0.44047,0.50689 0.56546,0.0595 0.82151,-0.37558 0.88096,-0.76339 0.76207,-1.07484 0.63252,-1.32981 0.37494,-1.26416 0.19052,-1.00767 v -0.82292 l -0.24996,-0.38169 h -0.50602 l -0.50601,0.19084"
         style="fill:none;stroke:#000000;stroke-width:0.849999;stroke-linecap:round;stroke-linejoin:round;stroke-miterlimit:10;stroke-dasharray:none;stroke-opacity:1"
         id="path1143" /></g><g
       style="stroke:#000000"
       transform="rotate(-90,342.68651,375.59864)"
       id="g3274"><path
         d="m 282.30596,390.07516 v 1.32981 l 0.0655,1.38936 0.19052,1.64585 0.12498,1.83059 c 0.0613,1.39472 0.18749,2.78567 0.3155,4.1757 l 0.12498,0.31604 c -0.43554,-0.42638 -0.33714,-4.0918 0.64566,-4.23446 1.92246,-0.27907 1.51966,2.67605 2.02324,4.7644"
         style="fill:none;stroke:#000000;stroke-width:0.849999;stroke-linecap:round;stroke-linejoin:round;stroke-miterlimit:10;stroke-dasharray:none;stroke-opacity:1"
         id="path1147"
         sodipodi:nodetypes="cccccccsc" /><path
         d="m 291.67573,396.24424 -0.0655,-0.2565 -0.3155,-0.19085 -0.44048,0.0657 -0.88705,0.44124 -1.00594,0.69773 -0.82151,0.94812 -0.69653,1.07332 -0.12498,0.75727 0.12498,0.69773 0.25605,0.44124 0.50602,0.25039 h 0.69044 l 0.69653,-0.44124 0.631,-0.56643 0.56545,-0.75727 0.50602,-0.82293 0.3155,-0.63208 0.19051,-0.57253 0.12498,-0.44124 -0.0655,-0.25039 -0.3155,0.69163 -0.12498,0.82292 -0.12498,1.01377 -0.0655,1.07332 0.25606,1.01377 0.37494,0.75728 0.38103,0.50688"
         style="fill:none;stroke:#000000;stroke-width:0.849999;stroke-linecap:round;stroke-linejoin:round;stroke-miterlimit:10;stroke-dasharray:none;stroke-opacity:1"
         id="path1149"
         sodipodi:nodetypes="cccccccccccccccccccccccccccc" /><path
         d="m 297.11773,395.62422 c -0.75561,0.13145 -1.12173,0.49006 -1.63845,1.00766 l -0.69653,0.57254 -0.44048,0.50078 -0.24996,0.44734 -0.19052,0.37558 0.12498,0.38169 0.19052,0.37559 0.37494,0.25649 0.38103,0.25039 0.24996,0.31604 0.19052,0.31604 v 0.44124 l -0.19052,0.57254 -0.24996,0.44123 -0.38103,0.56796 -0.37494,0.38169 -0.19052,0.25039 -0.19052,0.19084"
         style="fill:none;stroke:#000000;stroke-width:0.849999;stroke-linecap:round;stroke-linejoin:round;stroke-miterlimit:10;stroke-dasharray:none;stroke-opacity:1"
         id="path1151"
         sodipodi:nodetypes="ccccccccccccccccccc" /><path
         d="m 299.05869,391.02249 c -0.92708,3.75692 0.0152,7.79198 -0.38104,11.9454"
         style="fill:none;stroke:#000000;stroke-width:0.849999;stroke-linecap:round;stroke-linejoin:round;stroke-miterlimit:10;stroke-dasharray:none;stroke-opacity:1"
         id="path1153"
         sodipodi:nodetypes="cc" /><path
         d="m 298.99874,401.2556 c 1.75155,-1.64074 3.23724,-1.99826 4.72687,-3.97643"
         style="fill:none;stroke:#000000;stroke-width:0.849999;stroke-linecap:round;stroke-linejoin:round;stroke-miterlimit:10;stroke-dasharray:none;stroke-opacity:1"
         id="path1155"
         sodipodi:nodetypes="cc" /><path
         d="m 301.51086,399.62458 1.20551,3.59998"
         style="fill:none;stroke:#000000;stroke-width:0.849999;stroke-linecap:round;stroke-linejoin:round;stroke-miterlimit:10;stroke-dasharray:none;stroke-opacity:1"
         id="path1157"
         sodipodi:nodetypes="cc" /><path
         d="m 305.59165,400.8523 c 2.70542,0.58524 3.72527,-0.66855 4.26102,-2.17767 v -0.88858 l -0.57155,-0.25038 -0.88096,0.12519 -1.01355,0.50689 -0.9465,0.88247 -0.94649,1.20461 -0.75598,1.32371 c -1.06261,2.90082 -0.36674,2.97319 3.48799,2.42539"
         style="fill:none;stroke:#000000;stroke-width:0.849999;stroke-linecap:round;stroke-linejoin:round;stroke-miterlimit:10;stroke-dasharray:none;stroke-opacity:1"
         id="path1159"
         sodipodi:nodetypes="cccccccccc" /><path
         d="m 311.91179,388.53539 -0.20309,16.51788 1.28895,-1.12058"
         style="fill:none;stroke:#000000;stroke-width:0.849999;stroke-linecap:round;stroke-linejoin:round;stroke-miterlimit:10;stroke-dasharray:none;stroke-opacity:1"
         id="path1161"
         sodipodi:nodetypes="ccc" /></g><path
       d="m 351.80777,437.40123 15.76574,-51.38021"
       style="fill:none;stroke:#000000;stroke-width:0.849999;stroke-linecap:round;stroke-linejoin:round;stroke-miterlimit:10;stroke-dasharray:none;stroke-opacity:1"
       id="path1500"
       sodipodi:nodetypes="cc" /><path
       d="m 367.57351,386.02102 47.87335,-0.93591"
       style="fill:none;stroke:#000000;stroke-width:0.849999;stroke-linecap:round;stroke-linejoin:round;stroke-miterlimit:10;stroke-dasharray:none;stroke-opacity:1"
       id="path1502"
       sodipodi:nodetypes="cc" /></g></svg>
