<?xml version="1.0" encoding="UTF-8" standalone="no"?>
<svg
   xmlns:dc="http://purl.org/dc/elements/1.1/"
   xmlns:cc="http://creativecommons.org/ns#"
   xmlns:rdf="http://www.w3.org/1999/02/22-rdf-syntax-ns#"
   xmlns:svg="http://www.w3.org/2000/svg"
   xmlns="http://www.w3.org/2000/svg"
   xmlns:xlink="http://www.w3.org/1999/xlink"
   xmlns:sodipodi="http://sodipodi.sourceforge.net/DTD/sodipodi-0.dtd"
   xmlns:inkscape="http://www.inkscape.org/namespaces/inkscape"
   sodipodi:docname="overview.svg"
   inkscape:version="1.0 (4035a4fb49, 2020-05-01)"
   id="svg8"
   version="1.1"
   viewBox="0 0 155.24707 129.10271"
   height="129.10271mm"
   width="155.24707mm">
  <defs
     id="defs2">
    <linearGradient
       id="linearGradient2795">
      <stop
         id="stop2797"
         style="stop-color:#b8b8b8;stop-opacity:0.49803922"
         offset="0" />
      <stop
         id="stop2799"
         style="stop-color:#7f7f7f;stop-opacity:0"
         offset="1" />
    </linearGradient>
    <linearGradient
       id="linearGradient2787">
      <stop
         id="stop2789"
         style="stop-color:#7f7f7f;stop-opacity:0.5"
         offset="0" />
      <stop
         id="stop2791"
         style="stop-color:#7f7f7f;stop-opacity:0"
         offset="1" />
    </linearGradient>
    <linearGradient
       id="linearGradient3676">
      <stop
         id="stop3678"
         style="stop-color:#b2b2b2;stop-opacity:0.5"
         offset="0" />
      <stop
         id="stop3680"
         style="stop-color:#b3b3b3;stop-opacity:0"
         offset="1" />
    </linearGradient>
    <linearGradient
       id="linearGradient3236">
      <stop
         id="stop3244"
         style="stop-color:#f4f4f4;stop-opacity:1"
         offset="0" />
      <stop
         id="stop3240"
         style="stop-color:#ffffff;stop-opacity:1"
         offset="1" />
    </linearGradient>
    <linearGradient
       id="linearGradient4671">
      <stop
         id="stop4673"
         style="stop-color:#ffd43b;stop-opacity:1"
         offset="0" />
      <stop
         id="stop4675"
         style="stop-color:#ffe873;stop-opacity:1"
         offset="1" />
    </linearGradient>
    <linearGradient
       id="linearGradient4689">
      <stop
         id="stop4691"
         style="stop-color:#5a9fd4;stop-opacity:1"
         offset="0" />
      <stop
         id="stop4693"
         style="stop-color:#306998;stop-opacity:1"
         offset="1" />
    </linearGradient>
    <linearGradient
       x1="224.23996"
       y1="144.75717"
       x2="-65.308502"
       y2="144.75717"
       id="linearGradient2987"
       xlink:href="#linearGradient4671"
       gradientUnits="userSpaceOnUse"
       gradientTransform="translate(100.2702,99.61116)" />
    <linearGradient
       x1="172.94208"
       y1="77.475983"
       x2="26.670298"
       y2="76.313133"
       id="linearGradient2990"
       xlink:href="#linearGradient4689"
       gradientUnits="userSpaceOnUse"
       gradientTransform="translate(100.2702,99.61116)" />
    <linearGradient
       x1="224.23996"
       y1="144.75717"
       x2="-65.308502"
       y2="144.75717"
       id="linearGradient2255"
       xlink:href="#linearGradient4671"
       gradientUnits="userSpaceOnUse"
       gradientTransform="matrix(0.562541,0,0,0.567972,-11.5974,-7.60954)" />
    <linearGradient
       x1="172.94208"
       y1="76.176224"
       x2="26.670298"
       y2="76.313133"
       id="linearGradient2258"
       xlink:href="#linearGradient4689"
       gradientUnits="userSpaceOnUse"
       gradientTransform="matrix(0.562541,0,0,0.567972,-11.5974,-7.60954)" />
    <radialGradient
       cx="61.518883"
       cy="132.28575"
       r="29.036913"
       fx="61.518883"
       fy="132.28575"
       id="radialGradient2801"
       xlink:href="#linearGradient2795"
       gradientUnits="userSpaceOnUse"
       gradientTransform="matrix(1,0,0,0.177966,0,108.7434)" />
    <linearGradient
       x1="150.96111"
       y1="192.35176"
       x2="112.03144"
       y2="137.27299"
       id="linearGradient1475"
       xlink:href="#linearGradient4671"
       gradientUnits="userSpaceOnUse"
       gradientTransform="matrix(0.562541,0,0,0.567972,33.698482,31.68078)" />
    <linearGradient
       x1="26.648937"
       y1="20.603781"
       x2="135.66525"
       y2="114.39767"
       id="linearGradient1478"
       xlink:href="#linearGradient4689"
       gradientUnits="userSpaceOnUse"
       gradientTransform="matrix(0.562541,0,0,0.567972,33.698482,31.68078)" />
    <radialGradient
       cx="61.518883"
       cy="132.28575"
       r="29.036913"
       fx="61.518883"
       fy="132.28575"
       id="radialGradient1480"
       xlink:href="#linearGradient2795"
       gradientUnits="userSpaceOnUse"
       gradientTransform="matrix(2.382716e-8,-0.296405,1.43676,4.683673e-7,-128.544,150.5202)" />
    <linearGradient
       id="lg1">
      <stop
         stop-color="#3778ae"
         offset="0"
         id="stop4667" />
      <stop
         stop-color="#366c99"
         offset="1"
         id="stop4669" />
    </linearGradient>
    <linearGradient
       id="lg2">
      <stop
         stop-color="#fff"
         offset="0"
         id="stop4672" />
      <stop
         stop-color="#fff"
         stop-opacity="0.165"
         offset="1"
         id="stop4674" />
    </linearGradient>
    <linearGradient
       id="lg3">
      <stop
         stop-color="#ffe253"
         offset="0"
         id="stop4677" />
      <stop
         stop-color="#ffca1c"
         offset="1"
         id="stop4679" />
    </linearGradient>
    <linearGradient
       id="lg4">
      <stop
         stop-color="#000"
         offset="0"
         id="stop4682" />
      <stop
         stop-color="#000"
         stop-opacity="0"
         offset="1"
         id="stop4684" />
    </linearGradient>
    <linearGradient
       x1="94.693001"
       y1="112.511"
       x2="94.693001"
       y2="64.053001"
       id="lg5"
       xlink:href="#lg2"
       gradientUnits="userSpaceOnUse"
       gradientTransform="matrix(0.353878,0,0,0.353878,-17.3795,-19.412)" />
    <linearGradient
       x1="59.728001"
       y1="102"
       x2="142.62"
       y2="102"
       id="lg6"
       xlink:href="#lg1"
       gradientUnits="userSpaceOnUse"
       gradientTransform="matrix(0.353878,0,0,0.353878,-17.3795,-19.412)" />
    <linearGradient
       x1="94.693001"
       y1="112.511"
       x2="94.693001"
       y2="64.053001"
       id="lg7"
       xlink:href="#lg2"
       gradientUnits="userSpaceOnUse"
       gradientTransform="matrix(0.353878,0,0,0.353878,-6.29697,-7.94537)" />
    <linearGradient
       x1="119.191"
       y1="89.129997"
       x2="116.965"
       y2="169.27901"
       id="lg8"
       xlink:href="#lg3"
       gradientUnits="userSpaceOnUse"
       gradientTransform="matrix(0.353878,0,0,0.353878,-16.3897,-17.997)" />
    <radialGradient
       cx="15.115"
       cy="63.965"
       r="12.289"
       fx="15.115"
       fy="63.965"
       id="rg1"
       xlink:href="#lg4"
       gradientUnits="userSpaceOnUse"
       gradientTransform="matrix(1.6,0,0,0.551754,-0.183975,4.83575)" />
  </defs>
  <sodipodi:namedview
     fit-margin-bottom="0"
     fit-margin-right="0"
     fit-margin-left="0"
     fit-margin-top="0"
     inkscape:window-maximized="1"
     inkscape:window-y="0"
     inkscape:window-x="0"
     inkscape:window-height="1375"
     inkscape:window-width="2560"
     showgrid="false"
     inkscape:document-rotation="0"
     inkscape:current-layer="layer1"
     inkscape:document-units="mm"
     inkscape:cy="326.47984"
     inkscape:cx="445.68261"
     inkscape:zoom="1.1371747"
     inkscape:pageshadow="2"
     inkscape:pageopacity="0.0"
     borderopacity="1.0"
     bordercolor="#666666"
     pagecolor="#ffffff"
     id="base" />
  <metadata
     id="metadata5">
    <rdf:RDF>
      <cc:Work
         rdf:about="">
        <dc:format>image/svg+xml</dc:format>
        <dc:type
           rdf:resource="http://purl.org/dc/dcmitype/StillImage" />
        <dc:title></dc:title>
      </cc:Work>
    </rdf:RDF>
  </metadata>
  <g
     transform="translate(-33.974052,-50.734025)"
     id="layer1"
     inkscape:groupmode="layer"
     inkscape:label="Layer 1">
    <path
       id="path833"
       d="M 41.199913,63.292354 H 172.5814"
       style="fill:none;stroke:#000000;stroke-width:0.265;stroke-linecap:round;stroke-linejoin:round;stroke-miterlimit:4;stroke-dasharray:none;stroke-opacity:1;paint-order:stroke fill markers" />
    <path
       sodipodi:nodetypes="ccc"
       id="path835"
       d="m 47.944544,61.501115 -6.744631,1.791239 6.744631,1.79124"
       style="fill:none;stroke:#000000;stroke-width:0.265;stroke-linecap:round;stroke-linejoin:round;stroke-miterlimit:4;stroke-dasharray:none;stroke-opacity:1" />
    <path
       style="fill:none;stroke:#000000;stroke-width:0.265;stroke-linecap:round;stroke-linejoin:round;stroke-miterlimit:4;stroke-dasharray:none;stroke-opacity:1"
       d="m 165.83677,61.501115 6.74463,1.791239 -6.74463,1.79124"
       id="path837"
       sodipodi:nodetypes="ccc" />
    <text
       id="text841"
       y="55.717358"
       x="33.395275"
       style="font-style:normal;font-variant:normal;font-weight:normal;font-stretch:normal;font-size:7.05556px;line-height:1.25;font-family:'Liberation Sans';-inkscape-font-specification:'Liberation Sans, Normal';font-variant-ligatures:normal;font-variant-caps:normal;font-variant-numeric:normal;font-variant-east-asian:normal;letter-spacing:0px;word-spacing:0px;fill:#000000;fill-opacity:1;stroke:none;stroke-width:0.264583"
       xml:space="preserve"><tspan
         style="font-style:normal;font-variant:normal;font-weight:normal;font-stretch:normal;font-size:7.05556px;font-family:'Liberation Sans';-inkscape-font-specification:'Liberation Sans, Normal';font-variant-ligatures:normal;font-variant-caps:normal;font-variant-numeric:normal;font-variant-east-asian:normal;stroke-width:0.264583"
         y="55.717358"
         x="33.395275"
         id="tspan839"
         sodipodi:role="line">Easy to use</tspan></text>
    <text
       xml:space="preserve"
       style="font-style:normal;font-variant:normal;font-weight:normal;font-stretch:normal;font-size:7.05556px;line-height:1.25;font-family:'Liberation Sans';-inkscape-font-specification:'Liberation Sans, Normal';font-variant-ligatures:normal;font-variant-caps:normal;font-variant-numeric:normal;font-variant-east-asian:normal;letter-spacing:0px;word-spacing:0px;fill:#000000;fill-opacity:1;stroke:none;stroke-width:0.264583"
       x="121.25623"
       y="55.84655"
       id="text845"><tspan
         sodipodi:role="line"
         id="tspan843"
         x="121.25623"
         y="55.84655"
         style="font-style:normal;font-variant:normal;font-weight:normal;font-stretch:normal;font-size:7.05556px;font-family:'Liberation Sans';-inkscape-font-specification:'Liberation Sans, Normal';font-variant-ligatures:normal;font-variant-caps:normal;font-variant-numeric:normal;font-variant-east-asian:normal;stroke-width:0.264583">Expensive but flexible</tspan></text>
    <circle
       r="2.0251343"
       cy="63.292355"
       cx="65.130562"
       id="path847"
       style="font-variation-settings:normal;opacity:1;vector-effect:none;fill:#ffffff;fill-opacity:1;stroke:#000000;stroke-width:0.265;stroke-linecap:round;stroke-linejoin:round;stroke-miterlimit:4;stroke-dasharray:none;stroke-dashoffset:0;stroke-opacity:1;paint-order:normal;stop-color:#000000;stop-opacity:1" />
    <text
       transform="rotate(90)"
       xml:space="preserve"
       style="font-style:normal;font-variant:normal;font-weight:normal;font-stretch:normal;font-size:7.05556px;line-height:1.25;font-family:'Liberation Sans';-inkscape-font-specification:'Liberation Sans, Normal';font-variant-ligatures:normal;font-variant-caps:normal;font-variant-numeric:normal;font-variant-east-asian:normal;letter-spacing:0px;word-spacing:0px;fill:#000000;fill-opacity:1;stroke:none;stroke-width:0.264583"
       x="121.59392"
       y="-63.306385"
       id="text865"><tspan
         sodipodi:role="line"
         id="tspan863"
         x="121.59392"
         y="-63.306385"
         style="font-style:normal;font-variant:normal;font-weight:normal;font-stretch:normal;font-size:7.05556px;font-family:'Liberation Sans';-inkscape-font-specification:'Liberation Sans, Normal';font-variant-ligatures:normal;font-variant-caps:normal;font-variant-numeric:normal;font-variant-east-asian:normal;stroke-width:0.264583">Pure Python</tspan></text>
    <text
       id="text885"
       y="122.41274"
       x="82.293907"
       style="font-style:normal;font-variant:normal;font-weight:normal;font-stretch:normal;font-size:10.5833px;line-height:1.25;font-family:Weiss;-inkscape-font-specification:Weiss;letter-spacing:0px;word-spacing:0px;fill:#000000;fill-opacity:1;stroke:none;stroke-width:0.264583"
       xml:space="preserve"><tspan
         style="stroke-width:0.264583"
         y="122.41274"
         x="82.293907"
         id="tspan883"
         sodipodi:role="line" /></text>
    <circle
       style="font-variation-settings:normal;opacity:1;vector-effect:none;fill:#ffffff;fill-opacity:1;stroke:#000000;stroke-width:0.265;stroke-linecap:round;stroke-linejoin:round;stroke-miterlimit:4;stroke-dasharray:none;stroke-dashoffset:0;stroke-opacity:1;paint-order:normal;stop-color:#000000;stop-opacity:1"
       id="circle887"
       cx="80.218239"
       cy="63.292355"
       r="2.0251343" />
    <text
       id="text891"
       y="-78.394058"
       x="121.75928"
       style="font-style:normal;font-variant:normal;font-weight:normal;font-stretch:normal;font-size:7.05556px;line-height:1.25;font-family:'Liberation Sans';-inkscape-font-specification:'Liberation Sans, Normal';font-variant-ligatures:normal;font-variant-caps:normal;font-variant-numeric:normal;font-variant-east-asian:normal;letter-spacing:0px;word-spacing:0px;fill:#000000;fill-opacity:1;stroke:none;stroke-width:0.264583"
       xml:space="preserve"
       transform="rotate(90)"><tspan
         style="font-style:normal;font-variant:normal;font-weight:normal;font-stretch:normal;font-size:7.05556px;font-family:'Liberation Sans';-inkscape-font-specification:'Liberation Sans, Normal';font-variant-ligatures:normal;font-variant-caps:normal;font-variant-numeric:normal;font-variant-east-asian:normal;stroke-width:0.264583"
         y="-78.394058"
         x="121.75928"
         id="tspan889"
         sodipodi:role="line">numpy, numba</tspan></text>
    <path
       inkscape:connector-curvature="0"
       d="m 81.426383,89.251808 a 0.46968022,0.46968022 0 0 1 -0.469685,0.469678 0.46968022,0.46968022 0 0 1 -0.469685,-0.469678 0.46968022,0.46968022 0 0 1 0.469685,-0.469682 0.46968022,0.46968022 0 0 1 0.469685,0.469682 z m 1.440348,0.313118 0.735832,-0.07828 -0.485331,-0.219182 0.109583,-0.438371 -0.469676,0.375747 c -0.885453,-1.632455 -2.55506,-1.23016 -5.197795,0.313118 -2.10645,1.230101 -3.930806,3.71558 -2.677183,5.620507 0.76397,1.160877 2.107225,1.61589 5.182148,-0.03131 3.606669,-1.932066 3.418795,-0.641962 1.236827,1.001989 l -3.428671,2.583238 2.473646,0.01566 -2.457991,4.117528 7.233074,-5.291736 -2.160526,-0.125247 c 1.66471,-1.278571 3.771252,-3.419569 2.724139,-5.103857 -0.799709,-1.286356 -2.415682,-1.435368 -7.624468,1.456011 -0.82096,0.455704 -1.384832,-0.04546 -0.720178,-0.704523 2.053965,-2.03662 5.879793,-3.045787 5.52657,-3.491292 z"
       style="vector-effect:none;fill:#00a3e0;fill-opacity:1;stroke:none;stroke-width:0.0619946px;stroke-linecap:butt;stroke-linejoin:miter;stroke-miterlimit:4;stroke-dasharray:none;stroke-dashoffset:0;stroke-opacity:1;paint-order:stroke fill markers"
       id="path906" />
    <g
       inkscape:label="Layer 1"
       id="layer1-2"
       transform="matrix(0.23431041,0,0,0.23431041,65.776846,52.512629)">
      <rect
         transform="matrix(0.8700021,0.49304801,0,1,0,0)"
         y="68.194733"
         x="52.39513"
         height="8.525095"
         width="8.819212"
         id="rect1558"
         style="opacity:1;vector-effect:none;fill:#6fa8dc;fill-opacity:1;stroke:none;stroke-width:0.283663px;stroke-linecap:butt;stroke-linejoin:miter;stroke-miterlimit:4;stroke-dasharray:none;stroke-dashoffset:0;stroke-opacity:1;paint-order:stroke fill markers" />
      <rect
         style="opacity:1;vector-effect:none;fill:#6fa8dc;fill-opacity:1;stroke:none;stroke-width:0.283663px;stroke-linecap:butt;stroke-linejoin:miter;stroke-miterlimit:4;stroke-dasharray:none;stroke-dashoffset:0;stroke-opacity:1;paint-order:stroke fill markers"
         id="rect1545"
         width="8.819212"
         height="8.525095"
         x="42.522213"
         y="68.194839"
         transform="matrix(0.8700021,0.49304801,0,1,0,0)" />
      <rect
         style="opacity:1;vector-effect:none;fill:#ffd966;fill-opacity:1;stroke:none;stroke-width:0.283663px;stroke-linecap:butt;stroke-linejoin:miter;stroke-miterlimit:4;stroke-dasharray:none;stroke-dashoffset:0;stroke-opacity:1;paint-order:stroke fill markers"
         id="rect1549"
         width="8.819212"
         height="8.525095"
         x="42.522213"
         y="78.093079"
         transform="matrix(0.8700021,0.49304801,0,1,0,0)" />
      <rect
         transform="matrix(0.8700021,0.49304801,0,1,0,0)"
         y="87.991341"
         x="42.522213"
         height="8.525095"
         width="8.819212"
         id="rect1547"
         style="opacity:1;vector-effect:none;fill:#6fa8dc;fill-opacity:1;stroke:none;stroke-width:0.283663px;stroke-linecap:butt;stroke-linejoin:miter;stroke-miterlimit:4;stroke-dasharray:none;stroke-dashoffset:0;stroke-opacity:1;paint-order:stroke fill markers" />
      <rect
         transform="matrix(0.8700021,0.49304801,0,1,0,0)"
         y="78.092972"
         x="52.39513"
         height="8.525095"
         width="8.819212"
         id="rect1560"
         style="opacity:1;vector-effect:none;fill:#ffd966;fill-opacity:1;stroke:none;stroke-width:0.283663px;stroke-linecap:butt;stroke-linejoin:miter;stroke-miterlimit:4;stroke-dasharray:none;stroke-dashoffset:0;stroke-opacity:1;paint-order:stroke fill markers" />
      <rect
         style="opacity:1;vector-effect:none;fill:#ffd966;fill-opacity:1;stroke:none;stroke-width:0.283663px;stroke-linecap:butt;stroke-linejoin:miter;stroke-miterlimit:4;stroke-dasharray:none;stroke-dashoffset:0;stroke-opacity:1;paint-order:stroke fill markers"
         id="rect1562"
         width="8.819212"
         height="8.525095"
         x="52.39513"
         y="87.991234"
         transform="matrix(0.8700021,0.49304801,0,1,0,0)" />
      <rect
         style="opacity:1;vector-effect:none;fill:#6fa8dc;fill-opacity:1;stroke:none;stroke-width:0.283663px;stroke-linecap:butt;stroke-linejoin:miter;stroke-miterlimit:4;stroke-dasharray:none;stroke-dashoffset:0;stroke-opacity:1;paint-order:stroke fill markers"
         id="rect1564"
         width="8.819212"
         height="8.525095"
         x="62.26804"
         y="68.194626"
         transform="matrix(0.8700021,0.49304801,0,1,0,0)" />
      <rect
         style="opacity:1;vector-effect:none;fill:#6fa8dc;fill-opacity:1;stroke:none;stroke-width:0.283663px;stroke-linecap:butt;stroke-linejoin:miter;stroke-miterlimit:4;stroke-dasharray:none;stroke-dashoffset:0;stroke-opacity:1;paint-order:stroke fill markers"
         id="rect1568"
         width="8.819212"
         height="8.525095"
         x="62.26804"
         y="78.092865"
         transform="matrix(0.8700021,0.49304801,0,1,0,0)" />
      <rect
         transform="matrix(0.8700021,0.49304801,0,1,0,0)"
         y="87.991127"
         x="62.26804"
         height="8.525095"
         width="8.819212"
         id="rect1570"
         style="opacity:1;vector-effect:none;fill:#ffd966;fill-opacity:1;stroke:none;stroke-width:0.283663px;stroke-linecap:butt;stroke-linejoin:miter;stroke-miterlimit:4;stroke-dasharray:none;stroke-dashoffset:0;stroke-opacity:1;paint-order:stroke fill markers" />
      <rect
         style="opacity:1;vector-effect:none;fill:#f1c232;fill-opacity:1;stroke:none;stroke-width:0.286206px;stroke-linecap:butt;stroke-linejoin:miter;stroke-miterlimit:4;stroke-dasharray:none;stroke-dashoffset:0;stroke-opacity:1;paint-order:stroke fill markers"
         id="rect1572"
         width="8.7390776"
         height="8.525095"
         x="-91.166527"
         y="140.96605"
         transform="matrix(-0.85461117,0.51926847,0,1,0,0)" />
      <rect
         transform="matrix(-0.85461117,0.51926847,0,1,0,0)"
         y="140.96616"
         x="-100.94974"
         height="8.525095"
         width="8.7390776"
         id="rect1574"
         style="opacity:1;vector-effect:none;fill:#3d85c6;fill-opacity:1;stroke:none;stroke-width:0.286206px;stroke-linecap:butt;stroke-linejoin:miter;stroke-miterlimit:4;stroke-dasharray:none;stroke-dashoffset:0;stroke-opacity:1;paint-order:stroke fill markers" />
      <rect
         transform="matrix(-0.85461117,0.51926847,0,1,0,0)"
         y="150.8644"
         x="-100.94974"
         height="8.525095"
         width="8.7390776"
         id="rect1576"
         style="opacity:1;vector-effect:none;fill:#3d85c6;fill-opacity:1;stroke:none;stroke-width:0.286206px;stroke-linecap:butt;stroke-linejoin:miter;stroke-miterlimit:4;stroke-dasharray:none;stroke-dashoffset:0;stroke-opacity:1;paint-order:stroke fill markers" />
      <rect
         style="opacity:1;vector-effect:none;fill:#3d85c6;fill-opacity:1;stroke:none;stroke-width:0.286206px;stroke-linecap:butt;stroke-linejoin:miter;stroke-miterlimit:4;stroke-dasharray:none;stroke-dashoffset:0;stroke-opacity:1;paint-order:stroke fill markers"
         id="rect1578"
         width="8.7390776"
         height="8.525095"
         x="-100.94974"
         y="160.76265"
         transform="matrix(-0.85461117,0.51926847,0,1,0,0)" />
      <rect
         style="opacity:1;vector-effect:none;fill:#f1c232;fill-opacity:1;stroke:none;stroke-width:0.286206px;stroke-linecap:butt;stroke-linejoin:miter;stroke-miterlimit:4;stroke-dasharray:none;stroke-dashoffset:0;stroke-opacity:1;paint-order:stroke fill markers"
         id="rect1580"
         width="8.7390776"
         height="8.525095"
         x="-91.166527"
         y="150.86429"
         transform="matrix(-0.85461117,0.51926847,0,1,0,0)" />
      <rect
         transform="matrix(-0.85461117,0.51926847,0,1,0,0)"
         y="160.76254"
         x="-91.166527"
         height="8.525095"
         width="8.7390776"
         id="rect1582"
         style="opacity:1;vector-effect:none;fill:#f1c232;fill-opacity:1;stroke:none;stroke-width:0.286206px;stroke-linecap:butt;stroke-linejoin:miter;stroke-miterlimit:4;stroke-dasharray:none;stroke-dashoffset:0;stroke-opacity:1;paint-order:stroke fill markers" />
      <rect
         transform="matrix(-0.85461117,0.51926847,0,1,0,0)"
         y="140.96594"
         x="-81.383331"
         height="8.525095"
         width="8.7390776"
         id="rect1584"
         style="opacity:1;vector-effect:none;fill:#3d85c6;fill-opacity:1;stroke:none;stroke-width:0.286206px;stroke-linecap:butt;stroke-linejoin:miter;stroke-miterlimit:4;stroke-dasharray:none;stroke-dashoffset:0;stroke-opacity:1;paint-order:stroke fill markers" />
      <rect
         transform="matrix(-0.85461117,0.51926847,0,1,0,0)"
         y="150.86418"
         x="-81.383331"
         height="8.525095"
         width="8.7390776"
         id="rect1586"
         style="opacity:1;vector-effect:none;fill:#3d85c6;fill-opacity:1;stroke:none;stroke-width:0.286206px;stroke-linecap:butt;stroke-linejoin:miter;stroke-miterlimit:4;stroke-dasharray:none;stroke-dashoffset:0;stroke-opacity:1;paint-order:stroke fill markers" />
      <rect
         style="opacity:1;vector-effect:none;fill:#f1c232;fill-opacity:1;stroke:none;stroke-width:0.286206px;stroke-linecap:butt;stroke-linejoin:miter;stroke-miterlimit:4;stroke-dasharray:none;stroke-dashoffset:0;stroke-opacity:1;paint-order:stroke fill markers"
         id="rect1588"
         width="8.7390776"
         height="8.525095"
         x="-81.383331"
         y="160.76244"
         transform="matrix(-0.85461117,0.51926847,0,1,0,0)" />
      <rect
         transform="matrix(0.86695877,0.49837986,0.85529748,-0.51813725,0,0)"
         y="-66.854408"
         x="118.62453"
         height="8.590704"
         width="8.7980309"
         id="rect1590"
         style="opacity:1;vector-effect:none;fill:#3d85c6;fill-opacity:1;stroke:none;stroke-width:0.282776px;stroke-linecap:butt;stroke-linejoin:miter;stroke-miterlimit:4;stroke-dasharray:none;stroke-dashoffset:0;stroke-opacity:1;paint-order:stroke fill markers" />
      <rect
         style="opacity:1;vector-effect:none;fill:#3d85c6;fill-opacity:1;stroke:none;stroke-width:0.282776px;stroke-linecap:butt;stroke-linejoin:miter;stroke-miterlimit:4;stroke-dasharray:none;stroke-dashoffset:0;stroke-opacity:1;paint-order:stroke fill markers"
         id="rect1592"
         width="8.7980309"
         height="8.590704"
         x="108.77531"
         y="-66.854286"
         transform="matrix(0.86695877,0.49837986,0.85529748,-0.51813725,0,0)" />
      <rect
         style="opacity:1;vector-effect:none;fill:#3d85c6;fill-opacity:1;stroke:none;stroke-width:0.282776px;stroke-linecap:butt;stroke-linejoin:miter;stroke-miterlimit:4;stroke-dasharray:none;stroke-dashoffset:0;stroke-opacity:1;paint-order:stroke fill markers"
         id="rect1594"
         width="8.7980309"
         height="8.590704"
         x="108.77531"
         y="-56.879871"
         transform="matrix(0.86695877,0.49837986,0.85529748,-0.51813725,0,0)" />
      <rect
         transform="matrix(0.86695877,0.49837986,0.85529748,-0.51813725,0,0)"
         y="-46.905449"
         x="108.77531"
         height="8.590704"
         width="8.7980309"
         id="rect1596"
         style="opacity:1;vector-effect:none;fill:#3d85c6;fill-opacity:1;stroke:none;stroke-width:0.282776px;stroke-linecap:butt;stroke-linejoin:miter;stroke-miterlimit:4;stroke-dasharray:none;stroke-dashoffset:0;stroke-opacity:1;paint-order:stroke fill markers" />
      <rect
         transform="matrix(0.86695877,0.49837986,0.85529748,-0.51813725,0,0)"
         y="-56.879982"
         x="118.62453"
         height="8.590704"
         width="8.7980309"
         id="rect1598"
         style="opacity:1;vector-effect:none;fill:#f1c232;fill-opacity:1;stroke:none;stroke-width:0.282776px;stroke-linecap:butt;stroke-linejoin:miter;stroke-miterlimit:4;stroke-dasharray:none;stroke-dashoffset:0;stroke-opacity:1;paint-order:stroke fill markers" />
      <rect
         style="opacity:1;vector-effect:none;fill:#3d85c6;fill-opacity:1;stroke:none;stroke-width:0.282776px;stroke-linecap:butt;stroke-linejoin:miter;stroke-miterlimit:4;stroke-dasharray:none;stroke-dashoffset:0;stroke-opacity:1;paint-order:stroke fill markers"
         id="rect1600"
         width="8.7980309"
         height="8.590704"
         x="118.62453"
         y="-46.905548"
         transform="matrix(0.86695877,0.49837986,0.85529748,-0.51813725,0,0)" />
      <rect
         style="opacity:1;vector-effect:none;fill:#3d85c6;fill-opacity:1;stroke:none;stroke-width:0.282776px;stroke-linecap:butt;stroke-linejoin:miter;stroke-miterlimit:4;stroke-dasharray:none;stroke-dashoffset:0;stroke-opacity:1;paint-order:stroke fill markers"
         id="rect1602"
         width="8.7980309"
         height="8.590704"
         x="128.47374"
         y="-66.854515"
         transform="matrix(0.86695877,0.49837986,0.85529748,-0.51813725,0,0)" />
      <rect
         style="opacity:1;vector-effect:none;fill:#f1c232;fill-opacity:1;stroke:none;stroke-width:0.282776px;stroke-linecap:butt;stroke-linejoin:miter;stroke-miterlimit:4;stroke-dasharray:none;stroke-dashoffset:0;stroke-opacity:1;paint-order:stroke fill markers"
         id="rect1604"
         width="8.7980309"
         height="8.590704"
         x="128.47374"
         y="-56.880089"
         transform="matrix(0.86695877,0.49837986,0.85529748,-0.51813725,0,0)" />
      <rect
         transform="matrix(0.86695877,0.49837986,0.85529748,-0.51813725,0,0)"
         y="-46.905655"
         x="128.47374"
         height="8.590704"
         width="8.7980309"
         id="rect1606"
         style="opacity:1;vector-effect:none;fill:#3d85c6;fill-opacity:1;stroke:none;stroke-width:0.282776px;stroke-linecap:butt;stroke-linejoin:miter;stroke-miterlimit:4;stroke-dasharray:none;stroke-dashoffset:0;stroke-opacity:1;paint-order:stroke fill markers" />
    </g>
    <circle
       r="2.0251343"
       cy="63.292355"
       cx="109.05273"
       id="circle4373"
       style="font-variation-settings:normal;opacity:1;vector-effect:none;fill:#ffffff;fill-opacity:1;stroke:#000000;stroke-width:0.265;stroke-linecap:round;stroke-linejoin:round;stroke-miterlimit:4;stroke-dasharray:none;stroke-dashoffset:0;stroke-opacity:1;paint-order:normal;stop-color:#000000;stop-opacity:1" />
    <text
       transform="rotate(90)"
       xml:space="preserve"
       style="font-style:normal;font-variant:normal;font-weight:normal;font-stretch:normal;font-size:7.05556px;line-height:1.25;font-family:'Liberation Sans';-inkscape-font-specification:'Liberation Sans, Normal';font-variant-ligatures:normal;font-variant-caps:normal;font-variant-numeric:normal;font-variant-east-asian:normal;letter-spacing:0px;word-spacing:0px;fill:#000000;fill-opacity:1;stroke:none;stroke-width:0.264583"
       x="121.92464"
       y="-107.22855"
       id="text4377"><tspan
         sodipodi:role="line"
         id="tspan4375"
         x="121.92464"
         y="-107.22855"
         style="font-style:normal;font-variant:normal;font-weight:normal;font-stretch:normal;font-size:7.05556px;font-family:'Liberation Sans';-inkscape-font-specification:'Liberation Sans, Normal';font-variant-ligatures:normal;font-variant-caps:normal;font-variant-numeric:normal;font-variant-east-asian:normal;stroke-width:0.264583">Cython</tspan></text>
    <g
       transform="matrix(0.05376249,0,0,0.05376249,103.48663,70.024204)"
       id="g4544">
      <path
         d="m 110.46717,132.28575 a 48.948285,8.6066783 0 1 1 -97.896571,0 48.948285,8.6066783 0 1 1 97.896571,0 z"
         transform="matrix(0.73406,0,0,0.809524,58.972752,63.796144)"
         id="path1894"
         style="opacity:0.44382;fill:url(#radialGradient1480);fill-opacity:1;fill-rule:nonzero;stroke:none" />
      <g
         transform="matrix(1.1081583,0,0,1.1081583,-5.641244,-12.285301)"
         id="g3206">
        <path
           d="m 103.60839,43.38407 c -4.583656,0.0213 -8.960942,0.412218 -12.812503,1.09375 -11.346216,2.004504 -13.406249,6.200102 -13.40625,13.9375 v 10.21875 h 26.812503 v 3.40625 h -26.812503 -10.0625 c -7.792459,0 -14.615759,4.683717 -16.75,13.59375 -2.46182,10.212966 -2.571015,16.58602 0,27.25 1.905928,7.93785 6.457543,13.59375 14.25,13.59375 h 9.21875 v -12.25 c 0,-8.8499 7.657144,-16.656248 16.75,-16.65625 h 26.781253 c 7.45495,0 13.40625,-6.138164 13.40625,-13.625 V 58.41532 c 0,-7.266339 -6.12998,-12.724778 -13.40625,-13.9375 -4.60599,-0.766725 -9.3851,-1.115048 -13.96875,-1.09375 z m -14.500003,8.21875 c 2.769547,0 5.03125,2.298646 5.03125,5.125 -2e-6,2.816336 -2.261703,5.09375 -5.03125,5.09375 -2.779476,-1e-6 -5.03125,-2.277415 -5.03125,-5.09375 -10e-7,-2.826353 2.251774,-5.125 5.03125,-5.125 z"
           id="path1948"
           style="fill:url(#linearGradient1478);fill-opacity:1" />
        <path
           d="m 134.32714,72.04032 v 11.90625 c 0,9.230755 -7.8259,17 -16.75,17 H 90.795887 c -7.335833,0 -13.406249,6.27848 -13.40625,13.625 v 25.53125 c 0,7.26634 6.318588,11.54032 13.40625,13.625 8.487331,2.49561 16.626233,2.94663 26.781253,0 6.75015,-1.95439 13.40625,-5.88761 13.40625,-13.625 v -10.21875 h -26.78125 v -3.40625 h 26.78125 13.40625 c 7.79246,0 10.69625,-5.43541 13.40624,-13.59375 2.79933,-8.39889 2.68022,-16.475776 0,-27.25 -1.92578,-7.757441 -5.60387,-13.59375 -13.40624,-13.59375 z m -15.0625,64.65625 c 2.77948,0 5.03125,2.27742 5.03125,5.09375 -1e-5,2.82635 -2.25178,5.125 -5.03125,5.125 -2.76955,0 -5.03125,-2.29865 -5.03125,-5.125 0,-2.81633 2.26169,-5.09375 5.03125,-5.09375 z"
           id="path1950"
           style="fill:url(#linearGradient1475);fill-opacity:1" />
      </g>
      <g
         transform="translate(32.006378,36.786794)"
         id="g3179" />
      <path
         d="M 107.59375,0 C 74.969981,0 48.572931,9.593118 28.500001,28.6875 9.501691,46.686855 0,68.782099 0,95.0625 c 0,27.95719 8.76385,51.23143 26.343751,69.8125 19.38518,20.80534 46.2467,31.25 80.718749,31.25 34.77298,0 62.02099,-10.44466 81.75,-31.25 5.28096,-5.47462 9.77236,-11.3677 13.5,-17.65625 H 162.125 c -10.40946,19.29518 -28.49867,29.02426 -54.28125,29.1875 -23.038689,0.30796 -40.324359,-8.80579 -51.843749,-27.25 -9.02632,-14.47476 -13.5,-32.50135 -13.5,-54.09375 0,-47.085733 21.49392,-71.671499 64.562499,-73.65625 23.29663,0.855493 40.53553,9.111781 51.625,24.750001 2.11114,2.904448 3.95875,5.998052 5.59375,9.25 H 207.0625 C 202.36242,45.663815 195.74812,36.768402 187.21875,28.6875 166.75895,9.593117 140.21761,0 107.59375,0 Z"
         id="path2196"
         style="fill:#646464;fill-opacity:1" />
    </g>
    <g
       transform="matrix(0.26458333,0,0,0.26458333,58.780102,69.251187)"
       id="g4750">
      <path
         style="fill:url(#rg1)"
         d="m 43.6618,40.1289 a 19.6618,6.7805 0 0 1 -39.3236,0 19.6618,6.7805 0 1 1 39.3236,0 z"
         fill="url(#rg1)"
         id="path4694" />
      <path
         style="fill:url(#lg8)"
         d="m 34.0804,37.5795 c 0,2.7319 -2.371,4.1156 -4.7774,4.8057 -3.6202,1.0404 -6.5255,0.8811 -9.5511,0 -2.5268,-0.7362 -4.7774,-2.2402 -4.7774,-4.8057 v -9.0132 c 0,-2.594 2.1621,-4.8092 4.7774,-4.8092 l 9.3984,-0.6111 c 3.1814,0 5.2606,-1.9858 5.2606,-5.245 l 0.8655,-4.3569 h 3.5813 c 2.7814,0 4.0909,2.0667 4.7774,4.8056 0.9555,3.8043 0.9978,6.6495 0,9.615 -0.9661,2.8805 -2,4.8056 -4.7774,4.8056 h -4.7773 -9.5512 v -0.02 c 8.2424,0.02 9.5512,-3.3164 9.5512,4.8281 z"
         fill="url(#lg8)"
         id="path4696" />
      <path
         d="m 28.1104,38.1776 c 0,-0.9944 0.8033,-1.8013 1.7906,-1.8013 1,0 1.7906,0.8069 1.7906,1.8013 0,0.9979 -0.7997,1.8047 -1.7906,1.8047 -0.9873,0 -1.7906,-0.8068 -1.7906,-1.8047 z"
         fill="#ffffff"
         id="path4698" />
      <path
         style="fill:url(#lg7)"
         d="m 35.2662,13.5436 v 4.2265 C 31.8551,23.767 25.375,23.7787 19.939,23.7787 l -2.017,0.2052 c -2.8342,2.4364 -2.9244,6.3463 -2.9223,9.7756 6.2502,-6.9742 12.9174,-7.5004 16.2436,-7.4854 6.6377,0.029 9.7638,-1.6029 12.9339,-5.1939 -0.016,-0.07 0.016,-0.132 0,-0.2037 -0.1222,-0.8 -0.3362,-1.6544 -0.5601,-2.546 -0.3218,-1.2839 -0.7428,-2.4141 -1.4257,-3.2589 -0.016,-0.016 -0.038,-0.034 -0.051,-0.05 0,0 -0.042,0 -0.05,0 -0.023,-0.028 -0.028,-0.075 -0.05,-0.1011 -0.047,-0.034 -0.052,-0.07 -0.101,-0.101 -0.016,-0.016 -0.039,0.016 -0.05,0 C 41.1653,14.3502 40.2858,14 39.3942,13.8519 38.5861,13.7183 37.775,13.6165 36.95,13.5464 h -0.5092 -1.1711 z"
         opacity="0.837"
         fill="url(#lg7)"
         id="path4700" />
      <path
         d="m 34.559,37.579 c 0,2.732 -2.8497,4.116 -5.256,4.806 -3.62,1.04 -6.525,0.881 -9.551,0 -2.527,-0.736 -4.801,-2.24 -4.805,-4.805 l -0.016,-9.258 c -0.01,-3.073 2.302,-5.01 4.849,-5 l 8.4667,0.015 c 3.25,0 6.41,-3.3 6.401,-6.55 V 13.55 h 4.21 c 2.7814,0 4.09,2.067 4.777,4.806 0.956,3.804 1,6.649 0,9.615 -0.966,2.88 -2,5.1476 -4.777,5.148 h -4.3 -10.03 v -0.02 l 10.03,0.034 z"
         fill="none"
         stroke="#bb9400"
         stroke-width="1.63"
         id="path4702" />
      <path
         d="m 35.4653,14.3584 v 2.3933 c 0,3.7245 -3.4965,7.3757 -7.4809,7.3757 h -8.2491 c -2.8506,0 -4.0184,2.1569 -4.0042,4.4379 l 0.056,9.0129 c 0.01,1.0446 0.4,1.8235 1.148,2.4951 0.748,0.6715 1.8726,1.183 3.0553,1.5277 2.9164,0.8492 5.576,1.0022 9.0638,0 1.1327,-0.3248 2.6394,-0.9401 3.3976,-1.5964 0.7581,-0.6565 1.3077,-1.2961 1.3077,-2.4264 v -3.6298 h -10.052 v -1.6795 l 15.1743,0.05 c 1.2008,0 1.788,-0.4724 2.3844,-1.1633 0.5964,-0.691 1.1149,-2.0469 1.5874,-3.456 0.9456,-2.8096 0.9336,-5.4491 0,-9.1658 -0.3252,-1.2978 -0.7976,-2.3461 -1.4257,-3.0552 -0.628,-0.7091 -1.357,-1.1202 -2.5461,-1.1202 z m 1.6294,1.6294 h 1.7867 c 0.5202,0 1.1993,0.4194 1.324,0.5602 0.3625,0.4093 0.78,1.2386 1.0694,2.3932 0.8895,3.5416 0.8915,5.7515 0.05,8.2491 -0.4517,1.347 -0.9205,2.6142 -1.2729,3 -0.3184,0.3395 -1,0.5093 -1.1713,0.5093 l -4.7865,-0.051 H 22.0768 v 4.9384 h 10.052 v 2 c 0,0.727 -0.9733,1.1789 -1.1408,1.3239 -0.4872,0.4219 -1.3508,0.8359 -2.3423,1.1202 -3.223,0.9264 -5.5,0.7859 -8.1984,0 -1.0211,-0.2975 -1.9061,-0.7339 -2.4069,-1.1595 -0.5008,-0.4256 -0.5316,-0.7741 -0.6238,-1.285 l -0.056,-9.0129 c -0.013,-2.0224 0.6457,-2.8084 2.3748,-2.8084 h 8.2491 c 4.9233,0 9.1103,-4.3502 9.1103,-9.0052 1e-4,-0.2574 -10e-5,-0.5149 -10e-5,-0.7723 z"
         opacity="0.384"
         fill="#ffffff"
         id="path4704" />
      <path
         style="fill:url(#lg6)"
         d="m 13.9847,7.3199 c 0,-2.7319 0.7324,-4.2182 4.7772,-4.926 2.7462,-0.4813 6.2673,-0.5414 9.5513,0 2.5939,0.4282 4.7774,2.3604 4.7774,4.926 v 9.0134 c 0,2.6434 -2.1198,4.8091 -4.7774,4.8091 l -8.6621,0.4788 c -3.2414,0 -6.589,2.8321 -6.589,5.957 l -0.2736,3.777 h -3.284 c -2.7779,0 -4.3951,-2.0029 -5.0745,-4.8056 -0.9166,-3.7651 -0.8776,-6.0088 0,-9.6147 0.7608,-3.1461 3.192,-4.8058 5.7,-4.8058 h 3.5848 c 0,0 8.9448,-0.035 0,-0.032 V 7.32 v 0 z"
         fill="url(#lg6)"
         id="path4706" />
      <path
         d="m 16.3733,6.7218 c 0,-1 0.8,-1.8048 1.7906,-1.8048 0.9873,0 1.7907,0.8068 1.7907,1.8048 0,0.9944 -0.8034,1.8012 -1.7907,1.8012 -0.9908,0 -1.7906,-0.8068 -1.7906,-1.8012 z"
         fill="#ffffff"
         id="path4708" />
      <path
         style="fill:url(#lg5)"
         d="M 22.7173,1.9955 C 21.3039,2.0297 19.9469,2.1923 18.7455,2.4028 14.7007,3.1106 14.01,4.6102 14.01,7.3421 l -0.2952,4.787 -3.3203,-3e-4 c -2.7779,0 -5.1968,1.6406 -5.9576,4.7864 -0.5165,2.1225 -0.7504,3.7842 -0.6621,5.5504 6.2924,-7.1319 13.0442,-7.6531 16.3965,-7.638 6.6376,0.029 9.7637,-1.6029 12.9338,-5.1939 V 7.3423 c 0,-2.5655 -2.1926,-4.511 -4.7865,-4.9392 C 26.4714,2.0983 24.5345,1.9515 22.7173,1.9955 Z"
         opacity="0.377"
         fill="url(#lg5)"
         id="path4710" />
      <path
         d="m 18.696,2.6271 c 3.6201,-1.0404 6.5255,-0.8811 9.551,0 2.5268,0.7361 4.7787,2.24 4.7774,4.8057 v 9.7315 c 0,1.3662 -1.9746,4.5293 -4.7726,4.5293 H 19.353 c -2.4983,0 -5.997,2.7217 -5.997,5.981 v 3.7937 h -4.21 c -2.7815,0 -4.0909,-2.0667 -4.7774,-4.8058 -0.9555,-3.8041 -1,-6.6493 0,-9.6148 0.9661,-2.8806 2,-5.1477 4.7774,-5.1477 h 4.2985 10.03 v 0.019 l -10.03,-0.034 0.019,-4.8733 c -0.026,-1.9965 2.4146,-3.5524 5.2323,-4.3845 z"
         fill="none"
         stroke="#274e70"
         stroke-width="1.63"
         id="path4712" />
      <path
         d="m 12.5337,30.6538 v -2.796 c 0,-3.7246 3.3953,-7.0287 7.0461,-7.0287 h 8.6839 c 2.1549,0 4.024,-2.2411 4.0042,-4.3821 L 32.1845,7.434 C 32.1748,6.3895 31.8123,5.6105 31.0642,4.9389 30.3163,4.2673 29.1916,3.7558 28.009,3.4113 c -2.9166,-0.8494 -5.5762,-1.0023 -9.0639,0 -1.1326,0.3248 -2.6396,0.94 -3.3976,1.5964 -0.7582,0.6564 -1.3076,1.296 -1.3076,2.4263 v 3.6298 h 10.0519 v 1.6804 L 9.1175,12.6932 c -1.2,0 -1.788,0.4724 -2.3844,1.1634 -0.5964,0.6908 -1.1149,2.0467 -1.5874,3.4559 -0.9456,2.8096 -0.9335,5.449 0,9.1657 0.3252,1.2978 0.7976,2.3461 1.4258,3.0552 0.628,0.7092 1.357,1.1203 2.546,1.1203 h 3.4162 z M 10.9042,29.0243 H 9.1175 c -0.52,0 -1.2,-0.4194 -1.3239,-0.56 C 7.431,28.0549 7.0135,27.2255 6.7241,26.0709 5.8346,22.5294 5.8327,20.3196 6.6736,17.8218 7.1253,16.475 7.5941,15.2077 7.9466,14.8319 8.265,14.4926 8.9375,14.3227 9.1178,14.3227 l 16.8038,0.051 V 9.4343 H 15.8697 v -2 c 0,-0.727 0.9732,-1.1789 1.1407,-1.3239 0.4873,-0.4219 1.3509,-0.8359 2.3424,-1.12 3.2229,-0.9262 5.5,-0.7858 8.1983,0 1.0212,0.2975 1.9061,0.7339 2.3932,1.1712 0.1733,0.1352 0.2646,0.2973 0.4078,0.4582 0.1987,0.237 0.1552,0.55023 0.2011,0.8147 v 9.013 c 0,1.2357 -1.0565,2.7527 -2.2913,2.7527 H 19.578 c -4.5897,0 -8.6756,4.0029 -8.6756,8.6581 0,0.3875 0,1.166 0,1.166 z"
         opacity="0.165"
         fill="#ffffff"
         id="path4714" />
    </g>
    <circle
       style="font-variation-settings:normal;opacity:1;vector-effect:none;fill:#ffffff;fill-opacity:1;stroke:#000000;stroke-width:0.265;stroke-linecap:round;stroke-linejoin:round;stroke-miterlimit:4;stroke-dasharray:none;stroke-dashoffset:0;stroke-opacity:1;paint-order:normal;stop-color:#000000;stop-opacity:1"
       id="circle4752"
       cx="154.04234"
       cy="63.292355"
       r="2.0251343" />
    <text
       id="text4756"
       y="-152.21817"
       x="121.59392"
       style="font-style:normal;font-variant:normal;font-weight:normal;font-stretch:normal;font-size:7.05556px;line-height:1.25;font-family:'Liberation Sans';-inkscape-font-specification:'Liberation Sans, Normal';font-variant-ligatures:normal;font-variant-caps:normal;font-variant-numeric:normal;font-variant-east-asian:normal;letter-spacing:0px;word-spacing:0px;fill:#000000;fill-opacity:1;stroke:none;stroke-width:0.264583"
       xml:space="preserve"
       transform="rotate(90)"><tspan
         style="font-style:normal;font-variant:normal;font-weight:normal;font-stretch:normal;font-size:7.05556px;font-family:'Liberation Sans';-inkscape-font-specification:'Liberation Sans, Normal';font-variant-ligatures:normal;font-variant-caps:normal;font-variant-numeric:normal;font-variant-east-asian:normal;stroke-width:0.264583"
         y="-152.21817"
         x="121.59392"
         id="tspan4754"
         sodipodi:role="line">Foreign languages</tspan></text>
    <g
       transform="matrix(0.05376249,0,0,0.05376249,148.88505,72.001954)"
       id="g4766" />
    <path
       d="m 154.26075,70.024204 c -1.75394,0 -3.17311,0.51575 -4.25228,1.542311 -1.0214,0.967691 -1.53223,2.155586 -1.53223,3.568486 0,1.503048 0.47117,2.754329 1.41631,3.753294 1.04219,1.118546 2.48633,1.680077 4.33964,1.680077 1.86948,0 3.3344,-0.561531 4.39508,-1.680077 0.28392,-0.29433 0.52539,-0.611156 0.72579,-0.949244 h -2.16058 c -0.55963,1.037356 -1.53216,1.560416 -2.91829,1.569192 -1.23862,0.01656 -2.16794,-0.473421 -2.78725,-1.465028 -0.48528,-0.778199 -0.72579,-1.747353 -0.72579,-2.908214 0,-2.531447 1.15556,-3.853239 3.47104,-3.959944 1.25248,0.04599 2.17929,0.489872 2.77549,1.330622 0.1135,0.15615 0.21283,0.32247 0.30073,0.497303 h 2.30003 c -0.25269,-0.523778 -0.60829,-1.002017 -1.06685,-1.436467 -1.09997,-1.026561 -2.5269,-1.542311 -4.28084,-1.542311 z"
       id="path4768"
       style="fill:#646464;fill-opacity:1;stroke-width:0.0537625" />
    <path
       style="stroke-width:0.132176"
       id="path3"
       d="m 160.86493,105.20821 -0.58078,-0.35951 c -0.005,-0.0566 -0.0109,-0.11301 -0.0165,-0.1692 l 0.4991,-0.46551 c 0.0508,-0.0473 0.0735,-0.11735 0.0597,-0.18519 -0.0134,-0.068 -0.061,-0.1241 -0.12597,-0.14829 l -0.63802,-0.23858 c -0.016,-0.0552 -0.0328,-0.11012 -0.0499,-0.16469 l 0.39798,-0.55276 c 0.0405,-0.0562 0.0488,-0.12926 0.0224,-0.19337 -0.0264,-0.0638 -0.0842,-0.10963 -0.15253,-0.12081 l -0.67277,-0.10939 c -0.0262,-0.051 -0.0534,-0.10131 -0.0809,-0.15107 l 0.28272,-0.62057 c 0.0289,-0.0632 0.023,-0.13666 -0.0156,-0.19404 -0.0385,-0.0576 -0.1036,-0.0913 -0.17314,-0.0886 l -0.68283,0.0238 c -0.0353,-0.0441 -0.0713,-0.0879 -0.10782,-0.13086 l 0.15688,-0.6651 c 0.0158,-0.0675 -0.004,-0.13826 -0.0533,-0.1873 -0.0487,-0.049 -0.11964,-0.0691 -0.18717,-0.0533 l -0.66496,0.15677 c -0.0431,-0.0364 -0.0868,-0.0726 -0.13113,-0.10783 l 0.0239,-0.682812 c 0.002,-0.06913 -0.0311,-0.134819 -0.0886,-0.17315 -0.0578,-0.03859 -0.13086,-0.04441 -0.1939,-0.01573 l -0.62044,0.282856 c -0.05,-0.0275 -0.10034,-0.05472 -0.15107,-0.08102 l -0.10975,-0.672907 c -0.0109,-0.0682 -0.0568,-0.126096 -0.12081,-0.15253 -0.0638,-0.02657 -0.13707,-0.01797 -0.19325,0.02247 l -0.55315,0.39798 c -0.0545,-0.01732 -0.10915,-0.03397 -0.16443,-0.04983 l -0.23857,-0.638145 c -0.0242,-0.06503 -0.0802,-0.112741 -0.14831,-0.126228 -0.0679,-0.01335 -0.13785,0.0093 -0.18504,0.05975 l -0.46553,0.499492 c -0.0562,-0.0063 -0.11276,-0.01194 -0.16918,-0.01652 l -0.35952,-0.580912 c -0.0363,-0.05882 -0.1007,-0.09464 -0.16998,-0.09464 -0.0692,0 -0.13363,0.03582 -0.16984,0.09464 l -0.35952,0.580912 c -0.0566,0.0046 -0.11312,0.01025 -0.16931,0.01652 l -0.46566,-0.499492 c -0.0472,-0.0505 -0.11723,-0.0731 -0.18504,-0.05975 -0.068,0.01362 -0.12412,0.06119 -0.14831,0.126228 l -0.23857,0.638145 c -0.0552,0.01586 -0.10999,0.03265 -0.16457,0.04983 l -0.55302,-0.397981 c -0.0562,-0.04058 -0.1294,-0.04917 -0.19337,-0.02247 -0.0638,0.02644 -0.10975,0.08433 -0.12081,0.15253 l -0.10975,0.672907 c -0.0508,0.0263 -0.10094,0.0534 -0.15107,0.08102 l -0.62044,-0.282855 c -0.0631,-0.02881 -0.13652,-0.02287 -0.19389,0.01573 -0.0576,0.03833 -0.0913,0.104022 -0.0887,0.17315 l 0.0238,0.682812 c -0.0441,0.0353 -0.0879,0.0714 -0.13112,0.10783 l -0.66497,-0.15675 c -0.0675,-0.0157 -0.13839,0.005 -0.1873,0.0533 -0.0492,0.0491 -0.0691,0.11976 -0.0533,0.18729 l 0.15663,0.66511 c -0.0363,0.0431 -0.0722,0.0867 -0.10758,0.13085 l -0.68281,-0.0238 c -0.0689,-0.002 -0.1347,0.0311 -0.17316,0.0886 -0.0386,0.0574 -0.0444,0.13086 -0.0157,0.19404 l 0.28286,0.62057 c -0.0275,0.0498 -0.0548,0.1001 -0.081,0.15108 l -0.67277,0.10939 c -0.0684,0.0109 -0.12597,0.0568 -0.15254,0.1208 -0.0264,0.064 -0.0179,0.1372 0.0224,0.19337 l 0.39799,0.55276 c -0.0174,0.0546 -0.0341,0.10939 -0.0499,0.1647 l -0.63815,0.23857 c -0.0648,0.0242 -0.11252,0.0802 -0.12596,0.14831 -0.0135,0.0679 0.01,0.13785 0.0597,0.18517 l 0.49922,0.46553 c -0.006,0.0562 -0.0121,0.11276 -0.0165,0.16918 l -0.58078,0.35951 c -0.0589,0.0363 -0.0947,0.10059 -0.0947,0.16998 0,0.0694 0.0358,0.13363 0.0947,0.16985 l 0.58078,0.35951 c 0.005,0.0566 0.0109,0.11301 0.0165,0.16919 l -0.49922,0.46566 c -0.0507,0.0472 -0.0732,0.11722 -0.0597,0.18504 0.0135,0.068 0.0611,0.12398 0.12596,0.14831 l 0.63815,0.23857 c 0.0159,0.0552 0.0327,0.11011 0.0499,0.16469 l -0.39799,0.55289 c -0.0404,0.0563 -0.0491,0.12941 -0.0224,0.19325 0.0265,0.0642 0.0843,0.10987 0.15267,0.12081 l 0.67264,0.10939 c 0.0263,0.051 0.0533,0.10131 0.081,0.15133 l -0.28286,0.62031 c -0.0288,0.0631 -0.0229,0.13641 0.0157,0.19403 0.0386,0.0578 0.10433,0.0914 0.17316,0.0887 l 0.68255,-0.0239 c 0.0356,0.0444 0.0714,0.0879 0.10782,0.13112 l -0.15663,0.66523 c -0.0158,0.0674 0.004,0.13787 0.0533,0.1869 0.0487,0.0493 0.11976,0.069 0.18728,0.0532 l 0.66498,-0.15663 c 0.0432,0.0368 0.087,0.0725 0.13111,0.10758 l -0.0238,0.68295 c -0.002,0.0691 0.0311,0.13469 0.0886,0.17329 0.0574,0.0385 0.13086,0.0443 0.19391,0.0154 l 0.62043,-0.28272 c 0.0499,0.0277 0.10022,0.0548 0.15108,0.0811 l 0.10975,0.6725 c 0.0109,0.0685 0.0568,0.12636 0.12081,0.15267 0.0638,0.0265 0.1372,0.018 0.19337,-0.0223 l 0.55275,-0.39823 c 0.0546,0.0174 0.10951,0.0343 0.1647,0.05 l 0.23858,0.63788 c 0.0242,0.0648 0.0802,0.11276 0.1483,0.12596 0.0679,0.0138 0.13786,-0.008 0.18504,-0.0597 l 0.46566,-0.49923 c 0.0562,0.006 0.11277,0.0121 0.16932,0.0169 l 0.35951,0.58079 c 0.0362,0.0585 0.10058,0.0947 0.16985,0.0947 0.0692,0 0.13363,-0.0359 0.16998,-0.0947 l 0.35951,-0.58079 c 0.0566,-0.005 0.11301,-0.0109 0.1692,-0.0169 l 0.46552,0.49923 c 0.0472,0.0508 0.11723,0.0734 0.18503,0.0597 0.0681,-0.0134 0.12412,-0.0611 0.14831,-0.12596 l 0.23858,-0.63788 c 0.0552,-0.0158 0.11011,-0.0328 0.16469,-0.05 l 0.55289,0.39823 c 0.0562,0.0403 0.1294,0.0489 0.19324,0.0223 0.0639,-0.0263 0.10975,-0.0843 0.12081,-0.15267 l 0.10975,-0.6725 c 0.0508,-0.0263 0.10095,-0.0537 0.15107,-0.0811 l 0.62045,0.28272 c 0.0631,0.0288 0.1364,0.023 0.19389,-0.0154 0.0577,-0.0386 0.0912,-0.10409 0.0887,-0.17329 l -0.0238,-0.68295 c 0.0441,-0.0353 0.0879,-0.0708 0.13099,-0.10758 l 0.66498,0.15663 c 0.0675,0.0158 0.13838,-0.004 0.18715,-0.0532 0.0492,-0.0491 0.0691,-0.11952 0.0533,-0.1869 l -0.15663,-0.66523 c 0.0364,-0.0432 0.0725,-0.0867 0.10758,-0.13112 l 0.68282,0.0239 c 0.0689,0.002 0.13469,-0.0309 0.17315,-0.0887 0.0386,-0.0576 0.0445,-0.13099 0.0156,-0.19403 l -0.28271,-0.62031 c 0.0276,-0.05 0.0547,-0.10034 0.0809,-0.15133 l 0.67277,-0.10939 c 0.0685,-0.0109 0.1261,-0.0567 0.15253,-0.12081 0.0264,-0.0638 0.0181,-0.13693 -0.0224,-0.19325 l -0.39798,-0.55289 c 0.0171,-0.0546 0.034,-0.10938 0.0499,-0.16469 l 0.63801,-0.23857 c 0.0649,-0.0244 0.11277,-0.0802 0.12596,-0.14831 0.0137,-0.0679 -0.008,-0.13785 -0.0597,-0.18504 l -0.4991,-0.46566 c 0.006,-0.0562 0.0121,-0.11277 0.0165,-0.16919 l 0.58078,-0.35951 c 0.0588,-0.0362 0.0947,-0.10058 0.0947,-0.16985 0,-0.0692 -0.0357,-0.13363 -0.0945,-0.16998 z m -3.88717,4.81795 c -0.22178,-0.0479 -0.36281,-0.26647 -0.31523,-0.48892 0.0474,-0.22219 0.26594,-0.36362 0.4876,-0.31577 0.22178,0.0474 0.36308,0.26646 0.31551,0.48852 -0.0476,0.22206 -0.2662,0.36361 -0.48788,0.31617 z m -0.19733,-1.33471 c -0.20236,-0.0433 -0.40141,0.0854 -0.44477,0.28813 l -0.2062,0.96225 c -0.63628,0.2888 -1.3429,0.44927 -2.08706,0.44927 -0.76119,0 -1.48312,-0.1684 -2.13079,-0.4695 l -0.20606,-0.96223 c -0.0433,-0.2025 -0.24242,-0.3315 -0.44464,-0.28802 l -0.8495,0.18241 c -0.15768,-0.16231 -0.3044,-0.3352 -0.43921,-0.51774 h 4.13339 c 0.0468,0 0.078,-0.008 0.078,-0.051 v -1.46214 c 0,-0.0426 -0.0311,-0.051 -0.078,-0.051 h -1.20887 v -0.92682 h 1.30748 c 0.1194,0 0.63814,0.0341 0.80402,0.69723 0.052,0.20395 0.16602,0.86734 0.244,1.07975 0.0777,0.23818 0.39415,0.71401 0.73132,0.71401 h 2.0597 c 0.0234,0 0.0484,-0.002 0.0747,-0.007 -0.14288,0.19416 -0.29964,0.37789 -0.46843,0.54958 z m -5.71686,1.31461 c -0.2218,0.0479 -0.44014,-0.0936 -0.48786,-0.31576 -0.0474,-0.22259 0.0936,-0.44107 0.31537,-0.48892 0.22179,-0.0474 0.44028,0.094 0.48786,0.31616 0.0474,0.22206 -0.0937,0.44095 -0.31537,0.48852 z m -1.568,-6.35831 c 0.092,0.20765 -10e-4,0.45098 -0.20897,0.54285 -0.20738,0.0921 -0.45005,-0.001 -0.54205,-0.20937 -0.092,-0.20778 0.001,-0.45072 0.20897,-0.54285 0.20751,-0.092 0.45005,0.001 0.54205,0.20937 z m -0.48192,1.1424 0.88492,-0.39324 c 0.18901,-0.0839 0.2744,-0.30545 0.19047,-0.49486 l -0.18227,-0.41212 h 0.71678 v 3.2309 h -1.44613 c -0.12544,-0.44093 -0.19271,-0.90632 -0.19271,-1.38731 0,-0.1836 0.01,-0.36507 0.0289,-0.54337 z m 3.88333,-0.31379 v -0.95232 h 1.70691 c 0.0882,0 0.62256,0.10191 0.62256,0.50146 0,0.33177 -0.40988,0.45072 -0.74694,0.45072 h -1.58253 z m 6.20326,0.85716 c 0,0.12636 -0.005,0.25139 -0.0139,0.37551 h -0.51892 c -0.052,0 -0.0728,0.0341 -0.0728,0.085 v 0.23832 c 0,0.56096 -0.3163,0.68295 -0.59347,0.714 -0.26396,0.0298 -0.55659,-0.11047 -0.59268,-0.27201 -0.1557,-0.8758 -0.41516,-1.06282 -0.8249,-1.38599 0.50847,-0.32291 1.03758,-0.79926 1.03758,-1.43688 0,-0.68851 -0.472,-1.12217 -0.79372,-1.33484 -0.45139,-0.29754 -0.95114,-0.35714 -1.08595,-0.35714 h -5.36673 c 0.72775,-0.81223 1.71405,-1.38759 2.82961,-1.59696 l 0.6326,0.66366 c 0.14301,0.14975 0.37987,0.15531 0.52949,0.0122 l 0.70779,-0.67701 c 1.48316,0.27613 2.73882,1.19937 3.46248,2.46602 l -0.48456,1.0944 c -0.0837,0.18941 0.002,0.41094 0.19061,0.49487 l 0.93289,0.41437 c 0.0162,0.16562 0.0246,0.33295 0.0246,0.50253 z m -5.36303,-5.535522 c 0.16391,-0.157024 0.42389,-0.150813 0.58079,0.01335 0.15663,0.164558 0.15068,0.424812 -0.0136,0.581702 -0.1639,0.15703 -0.42389,0.15095 -0.58078,-0.0135 -0.1565,-0.1643 -0.15054,-0.424553 0.0136,-0.581577 z m 4.80856,3.869702 c 0.0919,-0.20765 0.33454,-0.30136 0.54192,-0.20923 0.20738,0.092 0.30097,0.3352 0.20897,0.54285 -0.0919,0.20778 -0.33453,0.30149 -0.54205,0.20937 -0.20712,-0.092 -0.3007,-0.33507 -0.20884,-0.54299 z" />
    <path
       sodipodi:nodetypes="sssssssssccsccssccscccsssssscccccssccccc"
       id="path4878"
       d="m 150.0964,96.034822 c -0.97964,0.0022 -1.96692,-1.076905 -1.96757,-1.871093 l -0.007,-8.102285 c -7.1e-4,-0.919212 1.16449,-1.877269 1.87726,-1.877257 l 8.09714,1.4e-4 c 0.93761,1.6e-5 1.86722,1.124019 1.86662,1.854275 l -0.007,8.147804 c -8.9e-4,1.016813 -0.98088,1.828088 -1.80943,1.829986 z m 4.57359,-2.311185 c -0.4209,-0.05821 -0.87011,-0.02215 -1.26855,-0.105576 -0.0775,-0.01653 -0.20225,-0.12489 -0.20225,-0.239843 v -2.974897 c 1.50222,0.191472 1.51366,0.454934 1.61602,1.730723 0.009,0.116919 0.0248,0.178945 0.0499,0.198431 0.0264,0.02058 0.16446,0.02835 0.50398,0.02835 0.33838,0 0.50505,-0.0078 0.53294,-0.02835 v -4.654659 l -0.49663,-0.0061 c -0.57829,-0.0071 -0.56927,-0.01011 -0.58925,0.194988 -0.0251,1.109598 -0.55276,1.407898 -1.61691,1.484148 v -2.841688 c 0.0283,-0.02346 0.17289,-0.02388 0.92915,-0.0022 1.58577,0.04548 1.91827,0.06748 2.09113,0.138344 0.36945,0.151448 0.58572,0.343675 0.74517,0.682054 0.24449,0.518824 0.28497,1.0425 0.32228,1.620432 0.0182,0.282701 0.0382,0.322099 0.18003,0.351547 0.0629,0.01306 0.29774,0.02093 0.52195,0.01751 l 0.40766,-0.0062 v -3.877929 c -2.899,-0.0038 -5.79801,-0.0076 -8.69701,-0.01145 v 1.056512 c 0.52511,0 0.98951,-0.01018 1.1729,0.102393 0.1268,0.07036 0.21054,0.128766 0.21037,0.222884 l -0.0121,6.617807 c -3.6e-4,0.218117 -0.22393,0.244706 -0.85551,0.265825 -0.17154,0.01898 -0.35282,-0.0055 -0.51568,0.0564 v 1.044311 h 4.97044 z"
       style="font-variation-settings:normal;opacity:1;vector-effect:none;fill:#734f96;fill-opacity:1;stroke:none;stroke-width:0.0227138;stroke-linecap:round;stroke-linejoin:round;stroke-miterlimit:4;stroke-dasharray:none;stroke-dashoffset:0;stroke-opacity:1;paint-order:normal;stop-color:#000000;stop-opacity:1" />
  </g>
</svg>
